PBL CD - PROBLEMA 3/simulation/qsim/pbl3.msim.vcd
$comment
	File created using the following command:
		vcd file pbl3.msim.vcd -direction
$end
$date
	Thu Nov 20 15:20:23 2025
$end
$version
	ModelSim Version 2020.1
$end
$timescale
	1ps
$end

$scope module teste_vlg_vec_tst $end
$var reg 1 ! clk $end
$var reg 1 " gar $end
$var reg 1 # pos $end
$var reg 8 $ qntsrolhas [7:0] $end
$var reg 1 % reset $end
$var reg 1 & switch_add_rolha $end
$var wire 1 ' add_rolha $end
$var wire 1 ( alarme $end
$var wire 1 ) disp $end
$var wire 1 * done $end
$var wire 1 + estoque [7] $end
$var wire 1 , estoque [6] $end
$var wire 1 - estoque [5] $end
$var wire 1 . estoque [4] $end
$var wire 1 / estoque [3] $end
$var wire 1 0 estoque [2] $end
$var wire 1 1 estoque [1] $end
$var wire 1 2 estoque [0] $end
$var wire 1 3 rolha5 $end
$var wire 1 4 rolha_disponivel [7] $end
$var wire 1 5 rolha_disponivel [6] $end
$var wire 1 6 rolha_disponivel [5] $end
$var wire 1 7 rolha_disponivel [4] $end
$var wire 1 8 rolha_disponivel [3] $end
$var wire 1 9 rolha_disponivel [2] $end
$var wire 1 : rolha_disponivel [1] $end
$var wire 1 ; rolha_disponivel [0] $end
$var wire 1 < ve $end

$scope module i1 $end
$var wire 1 = gnd $end
$var wire 1 > vcc $end
$var wire 1 ? unknown $end
$var tri1 1 @ devclrn $end
$var tri1 1 A devpor $end
$var tri1 1 B devoe $end
$var wire 1 C ~QUARTUS_CREATED_GND~I_combout $end
$var wire 1 D ~QUARTUS_CREATED_UNVM~~busy $end
$var wire 1 E ~QUARTUS_CREATED_ADC1~~eoc $end
$var wire 1 F ~QUARTUS_CREATED_ADC2~~eoc $end
$var wire 1 G disp~output_o $end
$var wire 1 H add_rolha~output_o $end
$var wire 1 I ve~output_o $end
$var wire 1 J done~output_o $end
$var wire 1 K alarme~output_o $end
$var wire 1 L rolha5~output_o $end
$var wire 1 M rolha_disponivel[0]~output_o $end
$var wire 1 N rolha_disponivel[1]~output_o $end
$var wire 1 O rolha_disponivel[2]~output_o $end
$var wire 1 P rolha_disponivel[3]~output_o $end
$var wire 1 Q rolha_disponivel[4]~output_o $end
$var wire 1 R rolha_disponivel[5]~output_o $end
$var wire 1 S rolha_disponivel[6]~output_o $end
$var wire 1 T rolha_disponivel[7]~output_o $end
$var wire 1 U estoque[0]~output_o $end
$var wire 1 V estoque[1]~output_o $end
$var wire 1 W estoque[2]~output_o $end
$var wire 1 X estoque[3]~output_o $end
$var wire 1 Y estoque[4]~output_o $end
$var wire 1 Z estoque[5]~output_o $end
$var wire 1 [ estoque[6]~output_o $end
$var wire 1 \ estoque[7]~output_o $end
$var wire 1 ] clk~input_o $end
$var wire 1 ^ clk~inputclkctrl_outclk $end
$var wire 1 _ switch_add_rolha~input_o $end
$var wire 1 ` comb_8|Selector2~0_combout $end
$var wire 1 a reset~input_o $end
$var wire 1 b reset~inputclkctrl_outclk $end
$var wire 1 c comb_8|state.ADD1~q $end
$var wire 1 d comb_8|Selector0~0_combout $end
$var wire 1 e comb_8|state.ADD2~q $end
$var wire 1 f comb_8|Selector6~0_combout $end
$var wire 1 g qntsrolhas[0]~input_o $end
$var wire 1 h estoq|dff0|flipflop_inst~q $end
$var wire 1 i dispo|dff0|flipflop_inst~0_combout $end
$var wire 1 j dispo|dff0|flipflop_inst~q $end
$var wire 1 k qntsrolhas[1]~input_o $end
$var wire 1 l estoq|dff1|flipflop_inst~q $end
$var wire 1 m comb_4|somador2|S~combout $end
$var wire 1 n dispo|dff1|flipflop_inst~q $end
$var wire 1 o comb_4|somador2|Cout~0_combout $end
$var wire 1 p qntsrolhas[2]~input_o $end
$var wire 1 q estoq|dff2|flipflop_inst~q $end
$var wire 1 r comb_4|somador3|S~0_combout $end
$var wire 1 s dispo|dff2|flipflop_inst~q $end
$var wire 1 t qntsrolhas[6]~input_o $end
$var wire 1 u estoq|dff6|flipflop_inst~q $end
$var wire 1 v qntsrolhas[5]~input_o $end
$var wire 1 w estoq|dff5|flipflop_inst~q $end
$var wire 1 x qntsrolhas[4]~input_o $end
$var wire 1 y estoq|dff4|flipflop_inst~q $end
$var wire 1 z qntsrolhas[3]~input_o $end
$var wire 1 { estoq|dff3|flipflop_inst~q $end
$var wire 1 | comb_4|somador3|Cout~0_combout $end
$var wire 1 } comb_4|somador4|S~0_combout $end
$var wire 1 ~ dispo|dff3|flipflop_inst~q $end
$var wire 1 !! comb_4|somador4|Cout~0_combout $end
$var wire 1 "! comb_4|somador5|S~0_combout $end
$var wire 1 #! dispo|dff4|flipflop_inst~q $end
$var wire 1 $! comb_4|somador5|Cout~0_combout $end
$var wire 1 %! comb_4|somador6|S~0_combout $end
$var wire 1 &! dispo|dff5|flipflop_inst~q $end
$var wire 1 '! comb_4|somador6|Cout~0_combout $end
$var wire 1 (! comb_4|somador7|S~0_combout $end
$var wire 1 )! dispo|dff6|flipflop_inst~q $end
$var wire 1 *! comb_5|WideAnd0~0_combout $end
$var wire 1 +! comb_5|WideAnd0~1_combout $end
$var wire 1 ,! comb_8|Selector6~1_combout $end
$var wire 1 -! comb_8|state.E0~q $end
$var wire 1 .! comb_8|Selector4~0_combout $end
$var wire 1 /! comb_8|state.DISP~q $end
$var wire 1 0! gar~input_o $end
$var wire 1 1! pos~input_o $end
$var wire 1 2! qntsrolhas[7]~input_o $end
$var wire 1 3! estoq|dff7|flipflop_inst~feeder_combout $end
$var wire 1 4! estoq|dff7|flipflop_inst~q $end
$var wire 1 5! comb_4|somador7|Cout~0_combout $end
$var wire 1 6! comb_4|somador8|S~0_combout $end
$var wire 1 7! dispo|dff7|flipflop_inst~q $end
$var wire 1 8! WideOr0~0_combout $end
$var wire 1 9! WideOr0~combout $end
$var wire 1 :! comb_7|Selector1~0_combout $end
$var wire 1 ;! comb_7|state.V1~q $end
$var wire 1 <! comb_7|Selector2~0_combout $end
$var wire 1 =! comb_7|state.AL~q $end
$var wire 1 >! comb_3|outw2 [7] $end
$var wire 1 ?! comb_3|outw2 [6] $end
$var wire 1 @! comb_3|outw2 [5] $end
$var wire 1 A! comb_3|outw2 [4] $end
$var wire 1 B! comb_3|outw2 [3] $end
$var wire 1 C! comb_3|outw2 [2] $end
$var wire 1 D! comb_3|outw2 [1] $end
$var wire 1 E! comb_3|outw2 [0] $end
$upscope $end
$upscope $end
$enddefinitions $end
#0
$dumpvars
0!
1"
1#
b0 $
0%
0&
0'
0(
0)
0*
02
01
00
0/
0.
0-
0,
0+
13
0;
0:
09
08
07
06
05
04
0<
0=
1>
x?
1@
1A
1B
0C
zD
zE
zF
0G
0H
0I
0J
0K
1L
0M
0N
0O
0P
0Q
0R
0S
0T
0U
0V
0W
0X
0Y
0Z
0[
0\
0]
0^
0_
0`
0a
0b
0c
0d
0e
1f
0g
0h
0i
0j
0k
0l
0m
0n
0o
0p
0q
0r
0s
0t
0u
0v
0w
0x
0y
0z
0{
0|
0}
0~
0!!
0"!
0#!
0$!
0%!
0&!
0'!
0(!
0)!
1*!
1+!
1,!
0-!
1.!
0/!
10!
11!
02!
03!
04!
05!
06!
07!
08!
09!
0:!
0;!
1<!
0=!
0E!
0D!
zC!
zB!
zA!
z@!
z?!
z>!
$end
#10000
1!
1]
1^
1-!
1=!
1/!
1G
1K
1(
1)
0.!
0,!
#20000
0!
0]
0^
#30000
1!
1]
1^
0-!
0/!
0G
0)
1.!
1,!
#40000
0!
0]
0^
#50000
1!
1]
1^
1-!
1/!
1G
1)
0.!
0,!
#60000
0!
0]
0^
#70000
1!
1]
1^
0-!
0/!
0G
0)
1.!
1,!
#75000
b1 $
1g
#80000
0!
0]
0^
#90000
1!
1]
1^
1-!
1/!
1h
1U
1G
1E!
1i
1)
12
0.!
0,!
#100000
0!
0]
0^
#110000
1!
1]
1^
0-!
0/!
1j
1M
0G
0E!
18!
0)
1;
1.!
1,!
1m
19!
0m
0<!
1:!
#120000
0!
0]
0^
#130000
1!
1]
1^
1-!
0=!
1;!
1/!
1G
1I
1J
0K
1E!
0i
0(
1*
1<
1)
0.!
0,!
0:!
1m
#140000
0!
0]
0^
#150000
b0 $
1!
1]
0g
1^
0-!
0;!
0/!
1n
0j
0h
0U
0M
1N
0G
0I
0J
0E!
0*
0<
0)
1:
0;
02
1.!
1,!
1:!
#160000
0!
0]
0^
#170000
1!
1]
1^
1-!
1;!
1/!
1G
1I
1J
1*
1<
1)
0.!
0,!
0:!
#180000
0!
0]
0^
#190000
1!
1]
1^
0-!
0;!
0/!
0G
0I
0J
0*
0<
0)
1.!
1,!
1:!
#200000
0!
0]
0^
#210000
1!
1]
1^
1-!
1;!
1/!
1G
1I
1J
1*
1<
1)
0.!
0,!
0:!
#220000
0!
0]
0^
#225000
b1 $
1g
#230000
1!
1]
1^
0-!
0;!
0/!
1h
1U
0G
0I
0J
0*
0<
0)
12
1.!
1,!
1:!
#240000
0!
0]
0^
#250000
1!
1]
1^
1-!
1;!
1/!
1G
1I
1J
1E!
1i
1*
1<
1)
0.!
0,!
0:!
#260000
0!
0]
0^
#270000
1!
1]
1^
0-!
0;!
0/!
1j
1M
0G
0I
0J
0E!
1o
0*
0<
0)
1;
1.!
1,!
1:!
0m
0o
1m
1r
0r
#280000
0!
0]
0^
#290000
1!
1]
1^
1-!
1;!
1/!
1G
1I
1J
1E!
0i
1*
1<
1)
0.!
0,!
0:!
1o
0m
1r
#300000
b0 $
0!
0]
0g
0^
#310000
1!
1]
1^
0-!
0;!
0/!
1s
0n
0j
0h
0U
0M
0N
1O
0G
0I
0J
1|
0E!
0o
0*
0<
0)
19
0:
0;
02
1.!
1,!
1:!
0r
0|
1}
1r
0}
#320000
0!
0]
0^
#330000
1!
1]
1^
1-!
1;!
1/!
1G
1I
1J
1*
1<
1)
0.!
0,!
0:!
#340000
0!
0]
0^
#350000
1!
1]
1^
0-!
0;!
0/!
0G
0I
0J
0*
0<
0)
1.!
1,!
1:!
#360000
0!
0]
0^
#370000
1!
1]
1^
1-!
1;!
1/!
1G
1I
1J
1*
1<
1)
0.!
0,!
0:!
#375000
b1 $
1g
#380000
0!
0]
0^
#390000
1!
1]
1^
0-!
0;!
0/!
1h
1U
0G
0I
0J
0*
0<
0)
12
1.!
1,!
1:!
#400000
0!
0]
0^
#410000
1!
1]
1^
1-!
1;!
1/!
1G
1I
1J
1E!
1i
1*
1<
1)
0.!
0,!
0:!
#420000
0!
0]
0^
#430000
1!
1]
1^
0-!
0;!
0/!
1j
1M
0G
0I
0J
0E!
0*
0<
0)
1;
1.!
1,!
1:!
1m
0m
#440000
0!
0]
0^
#450000
b0 $
1!
1]
0g
1^
1-!
1;!
1/!
0h
0U
1G
1I
1J
1*
1<
1)
02
0.!
0,!
0:!
#460000
0!
0]
0^
#470000
1!
1]
1^
0-!
0;!
0/!
0G
0I
0J
0*
0<
0)
1.!
1,!
1:!
#480000
0!
0]
0^
#490000
1!
1]
1^
1-!
1;!
1/!
1G
1I
1J
1*
1<
1)
0.!
0,!
0:!
#500000
0!
0]
0^
#510000
1!
1]
1^
0-!
0;!
0/!
0G
0I
0J
0*
0<
0)
1.!
1,!
1:!
#520000
0!
0]
0^
#525000
b1 $
1g
#530000
1!
1]
1^
1-!
1;!
1/!
1h
1U
1G
1I
1J
1E!
0i
1*
1<
1)
12
0.!
0,!
0:!
1m
#540000
0!
0]
0^
#550000
1!
1]
1^
0-!
0;!
0/!
1n
0j
0M
1N
0G
0I
0J
0E!
0*
0<
0)
1:
0;
1.!
1,!
1:!
0+!
0L
03
0.!
0,!
#560000
0!
0]
0^
#570000
1!
1]
1^
1;!
1I
1J
1*
1<
0:!
#580000
0!
0]
0^
#590000
1!
1]
1^
0;!
0I
0J
0*
0<
1:!
#600000
b0 $
0!
0]
0g
0^
#610000
1!
1]
1^
1;!
0h
0U
1I
1J
1*
1<
02
0:!
#620000
0!
0]
0^
#630000
1!
1]
1^
0;!
0I
0J
0*
0<
1:!
#640000
0!
0]
0^
#650000
1!
1]
1^
1;!
1I
1J
1*
1<
0:!
#660000
0!
0]
0^
#670000
1!
1]
1^
0;!
0I
0J
0*
0<
1:!
#675000
b1 $
1g
#680000
0!
0]
0^
#690000
1!
1]
1^
1;!
1h
1U
1I
1J
1*
1<
12
0:!
#700000
0!
0]
0^
#710000
1!
1]
1^
0;!
0I
0J
0*
0<
1:!
#720000
0!
0]
0^
#730000
1!
1]
1^
1;!
1I
1J
1*
1<
0:!
#740000
0!
0]
0^
#750000
b0 $
1!
1]
0g
1^
0;!
0h
0U
0I
0J
0*
0<
02
1:!
#760000
0!
0]
0^
#770000
1!
1]
1^
1;!
1I
1J
1*
1<
0:!
#780000
0!
0]
0^
#790000
1!
1]
1^
0;!
0I
0J
0*
0<
1:!
#800000
0!
0]
0^
#810000
1!
1]
1^
1;!
1I
1J
1*
1<
0:!
#820000
0!
0]
0^
#825000
b1 $
1g
#830000
1!
1]
1^
0;!
1h
1U
0I
0J
0*
0<
12
1:!
#840000
0!
0]
0^
#850000
1!
1]
1^
1;!
1I
1J
1*
1<
0:!
#860000
0!
0]
0^
#870000
1!
1]
1^
0;!
0I
0J
0*
0<
1:!
#880000
0!
0]
0^
#890000
1!
1]
1^
1;!
1I
1J
1*
1<
0:!
#900000
b0 $
0!
0]
0g
0^
#910000
1!
1]
1^
0;!
0h
0U
0I
0J
0*
0<
02
1:!
#920000
0!
0]
0^
#930000
1!
1]
1^
1;!
1I
1J
1*
1<
0:!
#940000
0!
0]
0^
#950000
1!
1]
1^
0;!
0I
0J
0*
0<
1:!
#960000
0!
0]
0^
#970000
1!
1]
1^
1;!
1I
1J
1*
1<
0:!
#975000
b1 $
1g
#980000
0!
0]
0^
#990000
1!
1]
1^
0;!
1h
1U
0I
0J
0*
0<
12
1:!
