PBL CD - PROBLEMA 3/simulation/qsim/pbl3.msim.vcd
$comment
	File created using the following command:
		vcd file pbl3.msim.vcd -direction
$end
$date
	Wed Nov 19 17:02:24 2025
$end
$version
	ModelSim Version 2020.1
$end
$timescale
	1ps
$end

$scope module MEF_contador_duzias_vlg_vec_tst $end
$var reg 1 ! clk $end
$var reg 1 " cont12 $end
$var reg 1 # cq $end
$var reg 1 $ reset $end
$var wire 1 % add_cont12 $end
$var wire 1 & cont1 $end

$scope module i1 $end
$var wire 1 ' gnd $end
$var wire 1 ( vcc $end
$var wire 1 ) unknown $end
$var tri1 1 * devclrn $end
$var tri1 1 + devpor $end
$var tri1 1 , devoe $end
$var wire 1 - ~QUARTUS_CREATED_GND~I_combout $end
$var wire 1 . ~QUARTUS_CREATED_UNVM~~busy $end
$var wire 1 / ~QUARTUS_CREATED_ADC1~~eoc $end
$var wire 1 0 ~QUARTUS_CREATED_ADC2~~eoc $end
$var wire 1 1 cont1~output_o $end
$var wire 1 2 add_cont12~output_o $end
$var wire 1 3 clk~input_o $end
$var wire 1 4 clk~inputclkctrl_outclk $end
$var wire 1 5 cq~input_o $end
$var wire 1 6 cont12~input_o $end
$var wire 1 7 Selector0~0_combout $end
$var wire 1 8 reset~input_o $end
$var wire 1 9 reset~inputclkctrl_outclk $end
$var wire 1 : state.CONT12~q $end
$var wire 1 ; Selector0~1_combout $end
$var wire 1 < state.C1~q $end
$var wire 1 = Selector1~0_combout $end
$var wire 1 > state.CONT1~q $end
$upscope $end
$upscope $end
$enddefinitions $end
#0
$dumpvars
0!
0"
0#
0$
0%
0&
0'
1(
x)
1*
1+
1,
0-
z.
z/
z0
01
02
03
04
05
06
07
08
09
0:
0;
0<
0=
0>
$end
#10000
1!
13
14
#20000
0!
03
04
#30000
1!
13
14
#40000
0!
03
04
#50000
1!
13
14
#60000
0!
03
04
#70000
1!
13
14
#80000
0!
03
04
#90000
1!
13
14
#100000
1#
0!
03
15
04
1=
1;
#110000
1!
13
14
1<
1>
11
1&
#120000
0!
03
04
#130000
1!
13
14
#140000
0!
03
04
#150000
1!
13
14
#160000
0!
03
04
#170000
1!
13
14
#180000
0!
03
04
#190000
1!
13
14
#200000
1"
0#
0!
03
05
16
04
0=
17
#210000
1!
13
14
0>
1:
12
01
0&
1%
#220000
0!
03
04
#230000
1!
13
14
#240000
0!
03
04
#250000
1!
13
14
#260000
0!
03
04
#270000
1!
13
14
#280000
0!
03
04
#290000
1!
13
14
#300000
1#
0!
03
15
04
#310000
1!
13
14
#320000
0!
03
04
#330000
1!
13
14
#340000
0!
03
04
#350000
1!
13
14
#360000
0!
03
04
#370000
1!
13
14
#380000
0!
03
04
#390000
1!
13
14
#400000
0"
0#
0!
03
05
06
04
0;
07
#410000
1!
13
14
0<
0:
02
0%
#420000
0!
03
04
#430000
1!
13
14
#440000
0!
03
04
#450000
1!
13
14
#460000
0!
03
04
#470000
1!
13
14
#480000
0!
03
04
#490000
1!
13
14
#500000
1#
0!
03
15
04
1=
1;
#510000
1!
13
14
1<
1>
11
1&
#520000
0!
03
04
#530000
1!
13
14
#540000
0!
03
04
#550000
1!
13
14
#560000
0!
03
04
#570000
1!
13
14
#580000
0!
03
04
#590000
1!
13
14
#600000
1"
0#
0!
03
05
16
04
0=
17
#610000
1!
13
14
0>
1:
12
01
0&
1%
#620000
0!
03
04
#630000
1!
13
14
#640000
0!
03
04
#650000
1!
13
14
#660000
0!
03
04
#670000
1!
13
14
#680000
0!
03
04
#690000
1!
13
14
#700000
1#
0!
03
15
04
#710000
1!
13
14
#720000
0!
03
04
#730000
1!
13
14
#740000
0!
03
04
#750000
1!
13
14
#760000
0!
03
04
#770000
1!
13
14
#780000
0!
03
04
#790000
1!
13
14
#800000
0"
0#
0!
03
05
06
04
0;
07
#810000
1!
13
14
0<
0:
02
0%
#820000
0!
03
04
#830000
1!
13
14
#840000
0!
03
04
#850000
1!
13
14
#860000
0!
03
04
#870000
1!
13
14
#880000
0!
03
04
#890000
1!
13
14
#900000
1#
0!
03
15
04
1=
1;
#910000
1!
13
14
1<
1>
11
1&
#920000
0!
03
04
#930000
1!
13
14
#940000
0!
03
04
#950000
1!
13
14
#960000
0!
03
04
#970000
1!
13
14
#980000
0!
03
04
#990000
1!
13
14
