PBL CD - PROBLEMA 3/simulation/qsim/pbl3.msim.vcd
$comment
	File created using the following command:
		vcd file pbl3.msim.vcd -direction
$end
$date
	Tue Nov 25 22:03:05 2025
$end
$version
	ModelSim Version 2020.1
$end
$timescale
	1ps
$end

$scope module teste_vlg_vec_tst $end
$var reg 1 ! Alarme $end
$var reg 1 " clk $end
$var reg 1 # cq_signal $end
$var reg 1 $ motor_signal $end
$var wire 1 % Motor $end

$scope module i1 $end
$var wire 1 & gnd $end
$var wire 1 ' vcc $end
$var wire 1 ( unknown $end
$var tri1 1 ) devclrn $end
$var tri1 1 * devpor $end
$var tri1 1 + devoe $end
$var wire 1 , ~QUARTUS_CREATED_GND~I_combout $end
$var wire 1 - ~QUARTUS_CREATED_UNVM~~busy $end
$var wire 1 . ~QUARTUS_CREATED_ADC1~~eoc $end
$var wire 1 / ~QUARTUS_CREATED_ADC2~~eoc $end
$var wire 1 0 Motor~output_o $end
$var wire 1 1 motor_signal~input_o $end
$var wire 1 2 clk~input_o $end
$var wire 1 3 clk~inputclkctrl_outclk $end
$var wire 1 4 cq_signal~input_o $end
$var wire 1 5 Alarme~input_o $end
$var wire 1 6 w_and2~combout $end
$var wire 1 7 comb_6|D0|flipflop_inst~q $end
$var wire 1 8 comb_6|D1_and~combout $end
$var wire 1 9 comb_6|D1|flipflop_inst~q $end
$var wire 1 : comb~0_combout $end
$upscope $end
$upscope $end
$enddefinitions $end
#0
$dumpvars
0!
0"
0#
0$
0%
0&
1'
x(
1)
1*
1+
0,
z-
z.
z/
00
01
02
03
04
05
06
07
08
09
0:
$end
#20000
1"
12
13
#40000
0"
02
03
#60000
1"
12
13
#80000
0"
02
03
#100000
1"
12
13
#120000
0"
02
03
#140000
1"
12
13
#160000
0"
02
03
#180000
1"
12
13
#200000
0"
02
03
#220000
1"
12
13
#240000
0"
02
03
#250000
1#
14
16
#260000
1"
12
13
17
1:
18
10
1%
#280000
0"
02
03
#300000
1"
12
13
19
0:
00
0%
#320000
0"
02
03
#340000
1"
12
13
#360000
0"
02
03
#380000
1"
12
13
#400000
0"
02
03
#420000
1"
12
13
#440000
0"
02
03
#460000
1"
12
13
#480000
0"
02
03
#500000
0#
1"
12
04
13
08
06
#520000
0"
02
03
#540000
1"
12
13
09
07
#560000
0"
02
03
#580000
1"
12
13
#600000
0"
02
03
#620000
1"
12
13
#640000
0"
02
03
#660000
1"
12
13
#680000
0"
02
03
#700000
1"
12
13
#720000
0"
02
03
#740000
1"
12
13
#750000
1#
14
16
#760000
0"
02
03
#780000
1"
12
13
17
1:
18
10
1%
#800000
0"
02
03
#820000
1"
12
13
19
0:
00
0%
#840000
0"
02
03
#860000
1"
12
13
#880000
0"
02
03
#900000
1"
12
13
#920000
0"
02
03
#940000
1"
12
13
#960000
0"
02
03
#980000
1"
12
13
