PBL CD - PROBLEMA 3/simulation/qsim/pbl3.msim.vcd
$comment
	File created using the following command:
		vcd file pbl3.msim.vcd -direction
$end
$date
	Mon Nov 24 23:06:30 2025
$end
$version
	ModelSim Version 2020.1
$end
$timescale
	1ps
$end

$scope module teste_vlg_vec_tst $end
$var reg 1 ! clk $end
$var reg 1 " garrafa $end
$var reg 1 # r $end
$var reg 1 $ resetar $end
$var reg 1 % sensor_cq $end
$var reg 1 & sensor_de_nivel $end
$var reg 1 ' start $end
$var reg 1 ( ve_done $end
$var wire 1 ) Ev $end
$var wire 1 * Motor $end
$var wire 1 + alarme $end
$var wire 1 , cont_done $end
$var wire 1 - done $end
$var wire 1 . garrafa_ve $end
$var wire 1 / start_cont $end
$var wire 1 0 tem_12 $end
$var wire 1 1 ve $end
$var wire 1 2 wire_cont1 [7] $end
$var wire 1 3 wire_cont1 [6] $end
$var wire 1 4 wire_cont1 [5] $end
$var wire 1 5 wire_cont1 [4] $end
$var wire 1 6 wire_cont1 [3] $end
$var wire 1 7 wire_cont1 [2] $end
$var wire 1 8 wire_cont1 [1] $end
$var wire 1 9 wire_cont1 [0] $end
$var wire 1 : wire_cont12 [7] $end
$var wire 1 ; wire_cont12 [6] $end
$var wire 1 < wire_cont12 [5] $end
$var wire 1 = wire_cont12 [4] $end
$var wire 1 > wire_cont12 [3] $end
$var wire 1 ? wire_cont12 [2] $end
$var wire 1 @ wire_cont12 [1] $end
$var wire 1 A wire_cont12 [0] $end

$scope module i1 $end
$var wire 1 B gnd $end
$var wire 1 C vcc $end
$var wire 1 D unknown $end
$var tri1 1 E devclrn $end
$var tri1 1 F devpor $end
$var tri1 1 G devoe $end
$var wire 1 H ~QUARTUS_CREATED_GND~I_combout $end
$var wire 1 I ~QUARTUS_CREATED_UNVM~~busy $end
$var wire 1 J ~QUARTUS_CREATED_ADC1~~eoc $end
$var wire 1 K ~QUARTUS_CREATED_ADC2~~eoc $end
$var wire 1 L cont_done~output_o $end
$var wire 1 M wire_cont1[0]~output_o $end
$var wire 1 N wire_cont1[1]~output_o $end
$var wire 1 O wire_cont1[2]~output_o $end
$var wire 1 P wire_cont1[3]~output_o $end
$var wire 1 Q wire_cont1[4]~output_o $end
$var wire 1 R wire_cont1[5]~output_o $end
$var wire 1 S wire_cont1[6]~output_o $end
$var wire 1 T wire_cont1[7]~output_o $end
$var wire 1 U wire_cont12[0]~output_o $end
$var wire 1 V wire_cont12[1]~output_o $end
$var wire 1 W wire_cont12[2]~output_o $end
$var wire 1 X wire_cont12[3]~output_o $end
$var wire 1 Y wire_cont12[4]~output_o $end
$var wire 1 Z wire_cont12[5]~output_o $end
$var wire 1 [ wire_cont12[6]~output_o $end
$var wire 1 \ wire_cont12[7]~output_o $end
$var wire 1 ] tem_12~output_o $end
$var wire 1 ^ Motor~output_o $end
$var wire 1 _ start_cont~output_o $end
$var wire 1 ` Ev~output_o $end
$var wire 1 a garrafa_ve~output_o $end
$var wire 1 b alarme~output_o $end
$var wire 1 c ve~output_o $end
$var wire 1 d done~output_o $end
$var wire 1 e clk~input_o $end
$var wire 1 f clk~inputclkctrl_outclk $end
$var wire 1 g comb_4|state.CONT1~clkctrl_outclk $end
$var wire 1 h comb_5|count[0]~21_combout $end
$var wire 1 i comb_5|count[1]~7_combout $end
$var wire 1 j comb_5|count[1]~8 $end
$var wire 1 k comb_5|count[2]~9_combout $end
$var wire 1 l comb_5|count[2]~10 $end
$var wire 1 m comb_5|count[3]~11_combout $end
$var wire 1 n comb_5|count[3]~12 $end
$var wire 1 o comb_5|count[4]~13_combout $end
$var wire 1 p comb_5|count[4]~14 $end
$var wire 1 q comb_5|count[5]~15_combout $end
$var wire 1 r comb_5|count[5]~16 $end
$var wire 1 s comb_5|count[6]~17_combout $end
$var wire 1 t comb_5|count[6]~18 $end
$var wire 1 u comb_5|count[7]~19_combout $end
$var wire 1 v comb_3|WideAnd0~1_combout $end
$var wire 1 w comb_4|Selector1~0_combout $end
$var wire 1 x resetar~input_o $end
$var wire 1 y resetar~inputclkctrl_outclk $end
$var wire 1 z comb_4|state.CONT12~q $end
$var wire 1 { comb_4|state.CONT12~clkctrl_outclk $end
$var wire 1 | comb_3|WideAnd0~0_combout $end
$var wire 1 } comb_3|WideAnd0~combout $end
$var wire 1 ~ start~input_o $end
$var wire 1 !! sensor_cq~input_o $end
$var wire 1 "! ve_done~input_o $end
$var wire 1 #! sensor_de_nivel~input_o $end
$var wire 1 $! garrafa~input_o $end
$var wire 1 %! comb_10|Selector0~0_combout $end
$var wire 1 &! comb_10|state.SR~q $end
$var wire 1 '! comb_10|Selector1~0_combout $end
$var wire 1 (! comb_10|Selector1~1_combout $end
$var wire 1 )! comb_10|state.Mo~q $end
$var wire 1 *! comb_10|Selector2~0_combout $end
$var wire 1 +! comb_10|Selector2~1_combout $end
$var wire 1 ,! comb_10|state.En~q $end
$var wire 1 -! comb_10|Selector3~0_combout $end
$var wire 1 .! comb_10|Selector3~1_combout $end
$var wire 1 /! comb_10|state.Vd~q $end
$var wire 1 0! comb_10|Selector4~0_combout $end
$var wire 1 1! comb_10|Selector4~1_combout $end
$var wire 1 2! comb_10|state.Cq~q $end
$var wire 1 3! comb_10|Selector5~0_combout $end
$var wire 1 4! comb_10|Selector5~1_combout $end
$var wire 1 5! comb_10|state.Co~q $end
$var wire 1 6! comb_4|Selector0~0_combout $end
$var wire 1 7! comb_4|Selector0~1_combout $end
$var wire 1 8! comb_4|state.C1~q $end
$var wire 1 9! comb_4|nextstate.CONT1~0_combout $end
$var wire 1 :! comb_4|state.CONT1~q $end
$var wire 1 ;! comb_4|state.WAIT~feeder_combout $end
$var wire 1 <! comb_4|state.WAIT~q $end
$var wire 1 =! comb_6|count[0]~21_combout $end
$var wire 1 >! comb_6|count[1]~7_combout $end
$var wire 1 ?! comb_6|count[1]~8 $end
$var wire 1 @! comb_6|count[2]~9_combout $end
$var wire 1 A! comb_6|count[2]~10 $end
$var wire 1 B! comb_6|count[3]~11_combout $end
$var wire 1 C! WideAnd0~0_combout $end
$var wire 1 D! dff0|flipflop_inst~feeder_combout $end
$var wire 1 E! dff0|flipflop_inst~q $end
$var wire 1 F! comb_6|count[3]~12 $end
$var wire 1 G! comb_6|count[4]~13_combout $end
$var wire 1 H! comb_6|count[4]~14 $end
$var wire 1 I! comb_6|count[5]~15_combout $end
$var wire 1 J! comb_6|count[5]~16 $end
$var wire 1 K! comb_6|count[6]~17_combout $end
$var wire 1 L! comb_6|count[6]~18 $end
$var wire 1 M! comb_6|count[7]~19_combout $end
$var wire 1 N! r~input_o $end
$var wire 1 O! comb_11|Selector2~0_combout $end
$var wire 1 P! comb_11|state.AL~q $end
$var wire 1 Q! comb_11|Selector1~0_combout $end
$var wire 1 R! comb_11|state.V1~q $end
$var wire 1 S! comb_5|count [7] $end
$var wire 1 T! comb_5|count [6] $end
$var wire 1 U! comb_5|count [5] $end
$var wire 1 V! comb_5|count [4] $end
$var wire 1 W! comb_5|count [3] $end
$var wire 1 X! comb_5|count [2] $end
$var wire 1 Y! comb_5|count [1] $end
$var wire 1 Z! comb_5|count [0] $end
$var wire 1 [! comb_6|count [7] $end
$var wire 1 \! comb_6|count [6] $end
$var wire 1 ]! comb_6|count [5] $end
$var wire 1 ^! comb_6|count [4] $end
$var wire 1 _! comb_6|count [3] $end
$var wire 1 `! comb_6|count [2] $end
$var wire 1 a! comb_6|count [1] $end
$var wire 1 b! comb_6|count [0] $end
$upscope $end
$upscope $end
$enddefinitions $end
#0
$dumpvars
0!
1"
0#
0$
1%
1&
0'
1(
0)
0*
0+
0,
0-
0.
0/
00
01
09
08
07
06
05
04
03
02
0A
0@
0?
0>
0=
0<
0;
0:
0B
1C
xD
1E
1F
1G
0H
zI
zJ
zK
0L
0M
0N
0O
0P
0Q
0R
0S
0T
0U
0V
0W
0X
0Y
0Z
0[
0\
0]
0^
0_
0`
0a
0b
0c
0d
0e
0f
0g
1h
0i
0j
0k
1l
0m
0n
0o
1p
0q
0r
0s
1t
0u
1v
0w
0x
0y
0z
0{
0|
0}
0~
1!!
1"!
1#!
1$!
1%!
0&!
0'!
1(!
0)!
0*!
0+!
0,!
0-!
0.!
0/!
00!
01!
02!
03!
04!
05!
16!
07!
08!
09!
0:!
0;!
0<!
1=!
0>!
0?!
0@!
1A!
0B!
0C!
0D!
0E!
0F!
0G!
1H!
0I!
0J!
0K!
1L!
0M!
0N!
1O!
0P!
0Q!
0R!
0Z!
0Y!
0X!
0W!
0V!
0U!
0T!
0S!
0b!
0a!
0`!
0_!
0^!
0]!
0\!
0[!
$end
#5000
1!
1e
1f
1&!
1P!
1)!
1^
1b
1*!
1+
1*
0(!
0%!
#10000
0!
0e
0f
#15000
1!
1e
1f
0&!
0)!
0^
0*!
0*
1(!
1%!
#20000
0!
0e
0f
#25000
1!
1e
1f
1&!
1)!
1^
1*!
1*
0(!
0%!
#30000
0!
0e
0f
#35000
1!
1e
1f
0&!
0)!
0^
0*!
0*
1(!
1%!
#40000
0!
0e
0f
#45000
1!
1e
1f
1&!
1)!
1^
1*!
1*
0(!
0%!
#50000
0!
0e
0f
#55000
1!
1e
1f
0&!
0)!
0^
0*!
0*
1(!
1%!
#60000
0!
0e
0f
#65000
1!
1e
1f
1&!
1)!
1^
1*!
1*
0(!
0%!
#70000
0!
0e
0f
#75000
1!
1e
1f
0&!
0)!
0^
0*!
0*
1(!
1%!
#80000
0!
0e
0f
#85000
1!
1e
1f
1&!
1)!
1^
1*!
1*
0(!
0%!
#90000
0!
0e
0f
#95000
1!
1e
1f
0&!
0)!
0^
0*!
0*
1(!
1%!
#100000
0!
0e
0f
#105000
1!
1e
1f
1&!
1)!
1^
1*!
1*
0(!
0%!
#110000
0!
0e
0f
#115000
1!
1e
1f
0&!
0)!
0^
0*!
0*
1(!
1%!
#120000
0!
0e
0f
#125000
1!
1e
1f
1&!
1)!
1^
1*!
1*
0(!
0%!
#130000
0!
0e
0f
#135000
1!
1e
1f
0&!
0)!
0^
0*!
0*
1(!
1%!
#140000
0!
0e
0f
#145000
1!
1e
1f
1&!
1)!
1^
1*!
1*
0(!
0%!
#150000
0!
0e
0f
#155000
1!
1e
1f
0&!
0)!
0^
0*!
0*
1(!
1%!
#160000
0!
0e
0f
#165000
1!
1e
1f
1&!
1)!
1^
1*!
1*
0(!
0%!
#170000
0!
0e
0f
#175000
1!
1e
1f
0&!
0)!
0^
0*!
0*
1(!
1%!
#180000
0!
0e
0f
#185000
1!
1e
1f
1&!
1)!
1^
1*!
1*
0(!
0%!
#190000
0!
0e
0f
#195000
1!
1e
1f
0&!
0)!
0^
0*!
0*
1(!
1%!
#200000
0!
0e
0f
#205000
1!
1e
1f
1&!
1)!
1^
1*!
1*
0(!
0%!
#210000
0!
0e
0f
#215000
1!
1e
1f
0&!
0)!
0^
0*!
0*
1(!
1%!
#220000
0!
0e
0f
#225000
1!
1e
1f
1&!
1)!
1^
1*!
1*
0(!
0%!
#230000
0!
0e
0f
#235000
1!
1e
1f
0&!
0)!
0^
0*!
0*
1(!
1%!
#240000
0!
0e
0f
#245000
1!
1e
1f
1&!
1)!
1^
1*!
1*
0(!
0%!
#250000
0!
0e
0f
#255000
1!
1e
1f
0&!
0)!
0^
0*!
0*
1(!
1%!
#260000
0!
0e
0f
#265000
1!
1e
1f
1&!
1)!
1^
1*!
1*
0(!
0%!
#270000
0!
0e
0f
#275000
1!
1e
1f
0&!
0)!
0^
0*!
0*
1(!
1%!
#280000
0!
0e
0f
#285000
1!
1e
1f
1&!
1)!
1^
1*!
1*
0(!
0%!
#290000
0!
0e
0f
#295000
1!
1e
1f
0&!
0)!
0^
0*!
0*
1(!
1%!
#300000
0!
0e
0f
#305000
1!
1e
1f
1&!
1)!
1^
1*!
1*
0(!
0%!
#310000
0!
0e
0f
#315000
1!
1e
1f
0&!
0)!
0^
0*!
0*
1(!
1%!
#320000
0!
0e
0f
#325000
1!
1e
1f
1&!
1)!
1^
1*!
1*
0(!
0%!
#330000
0!
0e
0f
#335000
1!
1e
1f
0&!
0)!
0^
0*!
0*
1(!
1%!
#340000
0!
0e
0f
#345000
1!
1e
1f
1&!
1)!
1^
1*!
1*
0(!
0%!
#350000
0!
0e
0f
#355000
1!
1e
1f
0&!
0)!
0^
0*!
0*
1(!
1%!
#360000
0!
0e
0f
#365000
1!
1e
1f
1&!
1)!
1^
1*!
1*
0(!
0%!
#370000
0!
0e
0f
#375000
1!
1e
1f
0&!
0)!
0^
0*!
0*
1(!
1%!
#380000
0!
0e
0f
#385000
1!
1e
1f
1&!
1)!
1^
1*!
1*
0(!
0%!
#390000
0!
0e
0f
#395000
1!
1e
1f
0&!
0)!
0^
0*!
0*
1(!
1%!
#400000
0!
0e
0f
#405000
1!
1e
1f
1&!
1)!
1^
1*!
1*
0(!
0%!
#410000
0!
0e
0f
#415000
1!
1e
1f
0&!
0)!
0^
0*!
0*
1(!
1%!
#420000
0!
0e
0f
#425000
1!
1e
1f
1&!
1)!
1^
1*!
1*
0(!
0%!
#430000
0!
0e
0f
#435000
1!
1e
1f
0&!
0)!
0^
0*!
0*
1(!
1%!
#440000
0!
0e
0f
#445000
1!
1e
1f
1&!
1)!
1^
1*!
1*
0(!
0%!
#450000
0!
0e
0f
#455000
1!
1e
1f
0&!
0)!
0^
0*!
0*
1(!
1%!
#460000
0!
0e
0f
#465000
1!
1e
1f
1&!
1)!
1^
1*!
1*
0(!
0%!
#470000
0!
0e
0f
#475000
1!
1e
1f
0&!
0)!
0^
0*!
0*
1(!
1%!
#480000
0!
0e
0f
#485000
1!
1e
1f
1&!
1)!
1^
1*!
1*
0(!
0%!
#490000
0!
0e
0f
#495000
1!
1e
1f
0&!
0)!
0^
0*!
0*
1(!
1%!
#500000
0!
0e
0f
#505000
1!
1e
1f
1&!
1)!
1^
1*!
1*
0(!
0%!
#510000
0!
0e
0f
#515000
1!
1e
1f
0&!
0)!
0^
0*!
0*
1(!
1%!
#520000
0!
0e
0f
#525000
1!
1e
1f
1&!
1)!
1^
1*!
1*
0(!
0%!
#530000
0!
0e
0f
#535000
1!
1e
1f
0&!
0)!
0^
0*!
0*
1(!
1%!
#540000
0!
0e
0f
#545000
1!
1e
1f
1&!
1)!
1^
1*!
1*
0(!
0%!
#550000
0!
0e
0f
#555000
1!
1e
1f
0&!
0)!
0^
0*!
0*
1(!
1%!
#560000
0!
0e
0f
#565000
1!
1e
1f
1&!
1)!
1^
1*!
1*
0(!
0%!
#570000
0!
0e
0f
#575000
1!
1e
1f
0&!
0)!
0^
0*!
0*
1(!
1%!
#580000
0!
0e
0f
#585000
1!
1e
1f
1&!
1)!
1^
1*!
1*
0(!
0%!
#590000
0!
0e
0f
#595000
1!
1e
1f
0&!
0)!
0^
0*!
0*
1(!
1%!
#600000
0!
0e
0f
#605000
1!
1e
1f
1&!
1)!
1^
1*!
1*
0(!
0%!
#610000
0!
0e
0f
#615000
1!
1e
1f
0&!
0)!
0^
0*!
0*
1(!
1%!
#620000
0!
0e
0f
#625000
1!
1e
1f
1&!
1)!
1^
1*!
1*
0(!
0%!
#630000
0!
0e
0f
#635000
1!
1e
1f
0&!
0)!
0^
0*!
0*
1(!
1%!
#640000
0!
0e
0f
#645000
1!
1e
1f
1&!
1)!
1^
1*!
1*
0(!
0%!
#650000
0!
0e
0f
#655000
1!
1e
1f
0&!
0)!
0^
0*!
0*
1(!
1%!
#660000
0!
0e
0f
#665000
1!
1e
1f
1&!
1)!
1^
1*!
1*
0(!
0%!
#670000
0!
0e
0f
#675000
1!
1e
1f
0&!
0)!
0^
0*!
0*
1(!
1%!
#680000
0!
0e
0f
#685000
1!
1e
1f
1&!
1)!
1^
1*!
1*
0(!
0%!
#690000
0!
0e
0f
#695000
1!
1e
1f
0&!
0)!
0^
0*!
0*
1(!
1%!
#700000
0!
0e
0f
#705000
1!
1e
1f
1&!
1)!
1^
1*!
1*
0(!
0%!
#710000
0!
0e
0f
#715000
1!
1e
1f
0&!
0)!
0^
0*!
0*
1(!
1%!
#720000
0!
0e
0f
#725000
1!
1e
1f
1&!
1)!
1^
1*!
1*
0(!
0%!
#730000
0!
0e
0f
#735000
1!
1e
1f
0&!
0)!
0^
0*!
0*
1(!
1%!
#740000
0!
0e
0f
#745000
1!
1e
1f
1&!
1)!
1^
1*!
1*
0(!
0%!
#750000
0!
0e
0f
#755000
1!
1e
1f
0&!
0)!
0^
0*!
0*
1(!
1%!
#760000
0!
0e
0f
#765000
1!
1e
1f
1&!
1)!
1^
1*!
1*
0(!
0%!
#770000
0!
0e
0f
#775000
1!
1e
1f
0&!
0)!
0^
0*!
0*
1(!
1%!
#780000
0!
0e
0f
#785000
1!
1e
1f
1&!
1)!
1^
1*!
1*
0(!
0%!
#790000
0!
0e
0f
#795000
1!
1e
1f
0&!
0)!
0^
0*!
0*
1(!
1%!
#800000
0!
0e
0f
#805000
1!
1e
1f
1&!
1)!
1^
1*!
1*
0(!
0%!
#810000
0!
0e
0f
#815000
1!
1e
1f
0&!
0)!
0^
0*!
0*
1(!
1%!
#820000
0!
0e
0f
#825000
1!
1e
1f
1&!
1)!
1^
1*!
1*
0(!
0%!
#830000
0!
0e
0f
#835000
1!
1e
1f
0&!
0)!
0^
0*!
0*
1(!
1%!
#840000
0!
0e
0f
#845000
1!
1e
1f
1&!
1)!
1^
1*!
1*
0(!
0%!
#850000
0!
0e
0f
#855000
1!
1e
1f
0&!
0)!
0^
0*!
0*
1(!
1%!
#860000
0!
0e
0f
#865000
1!
1e
1f
1&!
1)!
1^
1*!
1*
0(!
0%!
#870000
0!
0e
0f
#875000
1!
1e
1f
0&!
0)!
0^
0*!
0*
1(!
1%!
#880000
0!
0e
0f
#885000
1!
1e
1f
1&!
1)!
1^
1*!
1*
0(!
0%!
#890000
0!
0e
0f
#895000
1!
1e
1f
0&!
0)!
0^
0*!
0*
1(!
1%!
#900000
0!
0e
0f
#905000
1!
1e
1f
1&!
1)!
1^
1*!
1*
0(!
0%!
#910000
0!
0e
0f
#915000
1!
1e
1f
0&!
0)!
0^
0*!
0*
1(!
1%!
#920000
0!
0e
0f
#925000
1!
1e
1f
1&!
1)!
1^
1*!
1*
0(!
0%!
#930000
0!
0e
0f
#935000
1!
1e
1f
0&!
0)!
0^
0*!
0*
1(!
1%!
#940000
0!
0e
0f
#945000
1!
1e
1f
1&!
1)!
1^
1*!
1*
0(!
0%!
#950000
0!
0e
0f
#955000
1!
1e
1f
0&!
0)!
0^
0*!
0*
1(!
1%!
#960000
0!
0e
0f
#965000
1!
1e
1f
1&!
1)!
1^
1*!
1*
0(!
0%!
#970000
0!
0e
0f
#975000
1!
1e
1f
0&!
0)!
0^
0*!
0*
1(!
1%!
#980000
0!
0e
0f
#985000
1!
1e
1f
1&!
1)!
1^
1*!
1*
0(!
0%!
#990000
0!
0e
0f
#995000
1!
1e
1f
0&!
0)!
0^
0*!
0*
1(!
1%!
