PBL CD - PROBLEMA 3/simulation/qsim/pbl3.msim.vcd
$comment
	File created using the following command:
		vcd file pbl3.msim.vcd -direction
$end
$date
	Mon Nov 24 15:30:30 2025
$end
$version
	ModelSim Version 2020.1
$end
$timescale
	1ps
$end

$scope module teste_vlg_vec_tst $end
$var reg 1 ! clk $end
$var reg 1 " gar $end
$var reg 1 # pos $end
$var reg 8 $ qntsrolhas [7:0] $end
$var reg 1 % reset $end
$var reg 1 & switch_add_rolha $end
$var wire 1 ' add_rolha $end
$var wire 1 ( alarme $end
$var wire 1 ) disp $end
$var wire 1 * dispenser $end
$var wire 1 + done $end
$var wire 1 , estoque [7] $end
$var wire 1 - estoque [6] $end
$var wire 1 . estoque [5] $end
$var wire 1 / estoque [4] $end
$var wire 1 0 estoque [3] $end
$var wire 1 1 estoque [2] $end
$var wire 1 2 estoque [1] $end
$var wire 1 3 estoque [0] $end
$var wire 1 4 pode_repor $end
$var wire 1 5 rolha5 $end
$var wire 1 6 rolha_disponivel [7] $end
$var wire 1 7 rolha_disponivel [6] $end
$var wire 1 8 rolha_disponivel [5] $end
$var wire 1 9 rolha_disponivel [4] $end
$var wire 1 : rolha_disponivel [3] $end
$var wire 1 ; rolha_disponivel [2] $end
$var wire 1 < rolha_disponivel [1] $end
$var wire 1 = rolha_disponivel [0] $end
$var wire 1 > tem_15 $end
$var wire 1 ? ve $end
$var wire 1 @ whatever_is_available [7] $end
$var wire 1 A whatever_is_available [6] $end
$var wire 1 B whatever_is_available [5] $end
$var wire 1 C whatever_is_available [4] $end
$var wire 1 D whatever_is_available [3] $end
$var wire 1 E whatever_is_available [2] $end
$var wire 1 F whatever_is_available [1] $end
$var wire 1 G whatever_is_available [0] $end

$scope module i1 $end
$var wire 1 H gnd $end
$var wire 1 I vcc $end
$var wire 1 J unknown $end
$var tri1 1 K devclrn $end
$var tri1 1 L devpor $end
$var tri1 1 M devoe $end
$var wire 1 N ~QUARTUS_CREATED_GND~I_combout $end
$var wire 1 O ~QUARTUS_CREATED_UNVM~~busy $end
$var wire 1 P ~QUARTUS_CREATED_ADC1~~eoc $end
$var wire 1 Q ~QUARTUS_CREATED_ADC2~~eoc $end
$var wire 1 R disp~output_o $end
$var wire 1 S add_rolha~output_o $end
$var wire 1 T ve~output_o $end
$var wire 1 U done~output_o $end
$var wire 1 V alarme~output_o $end
$var wire 1 W rolha5~output_o $end
$var wire 1 X rolha_disponivel[0]~output_o $end
$var wire 1 Y rolha_disponivel[1]~output_o $end
$var wire 1 Z rolha_disponivel[2]~output_o $end
$var wire 1 [ rolha_disponivel[3]~output_o $end
$var wire 1 \ rolha_disponivel[4]~output_o $end
$var wire 1 ] rolha_disponivel[5]~output_o $end
$var wire 1 ^ rolha_disponivel[6]~output_o $end
$var wire 1 _ rolha_disponivel[7]~output_o $end
$var wire 1 ` estoque[0]~output_o $end
$var wire 1 a estoque[1]~output_o $end
$var wire 1 b estoque[2]~output_o $end
$var wire 1 c estoque[3]~output_o $end
$var wire 1 d estoque[4]~output_o $end
$var wire 1 e estoque[5]~output_o $end
$var wire 1 f estoque[6]~output_o $end
$var wire 1 g estoque[7]~output_o $end
$var wire 1 h pode_repor~output_o $end
$var wire 1 i whatever_is_available[0]~output_o $end
$var wire 1 j whatever_is_available[1]~output_o $end
$var wire 1 k whatever_is_available[2]~output_o $end
$var wire 1 l whatever_is_available[3]~output_o $end
$var wire 1 m whatever_is_available[4]~output_o $end
$var wire 1 n whatever_is_available[5]~output_o $end
$var wire 1 o whatever_is_available[6]~output_o $end
$var wire 1 p whatever_is_available[7]~output_o $end
$var wire 1 q tem_15~output_o $end
$var wire 1 r dispenser~output_o $end
$var wire 1 s clk~input_o $end
$var wire 1 t switch_add_rolha~input_o $end
$var wire 1 u clk~inputclkctrl_outclk $end
$var wire 1 v comb_14|Selector6~2_combout $end
$var wire 1 w reset~input_o $end
$var wire 1 x reset~inputclkctrl_outclk $end
$var wire 1 y comb_14|state.ADD2~q $end
$var wire 1 z comb_14|Selector2~0_combout $end
$var wire 1 { comb_14|state.ADD1~q $end
$var wire 1 | pos~input_o $end
$var wire 1 } gar~input_o $end
$var wire 1 ~ qntsrolhas[7]~input_o $end
$var wire 1 !! qntsrolhas[6]~input_o $end
$var wire 1 "! qntsrolhas[4]~input_o $end
$var wire 1 #! qntsrolhas[5]~input_o $end
$var wire 1 $! comb_4|WideOr0~0_combout $end
$var wire 1 %! qntsrolhas[3]~input_o $end
$var wire 1 &! qntsrolhas[1]~input_o $end
$var wire 1 '! qntsrolhas[0]~input_o $end
$var wire 1 (! qntsrolhas[2]~input_o $end
$var wire 1 )! comb_4|WideAnd0~0_combout $end
$var wire 1 *! comb~1_combout $end
$var wire 1 +! reposicao|Add0~3_combout $end
$var wire 1 ,! reposicao|count[0]~8_combout $end
$var wire 1 -! reposicao|count[0]~feeder_combout $end
$var wire 1 .! reposicao|Add0~0_combout $end
$var wire 1 /! reposicao|Add0~1_combout $end
$var wire 1 0! reposicao|Add0~2_combout $end
$var wire 1 1! reposicao|count[0]~9 $end
$var wire 1 2! reposicao|count[1]~10_combout $end
$var wire 1 3! reposicao|Add2~1 $end
$var wire 1 4! reposicao|Add2~2_combout $end
$var wire 1 5! reposicao|Add2~18_combout $end
$var wire 1 6! reposicao|count[1]~11 $end
$var wire 1 7! reposicao|count[2]~13 $end
$var wire 1 8! reposicao|count[3]~14_combout $end
$var wire 1 9! reposicao|Add2~3 $end
$var wire 1 :! reposicao|Add2~5 $end
$var wire 1 ;! reposicao|Add2~6_combout $end
$var wire 1 <! reposicao|Add2~8_combout $end
$var wire 1 =! reposicao|count[3]~15 $end
$var wire 1 >! reposicao|count[4]~16_combout $end
$var wire 1 ?! reposicao|Add2~7 $end
$var wire 1 @! reposicao|Add2~9_combout $end
$var wire 1 A! reposicao|Add2~11_combout $end
$var wire 1 B! reposicao|count[4]~17 $end
$var wire 1 C! reposicao|count[5]~18_combout $end
$var wire 1 D! reposicao|Add2~10 $end
$var wire 1 E! reposicao|Add2~12_combout $end
$var wire 1 F! reposicao|Add2~14_combout $end
$var wire 1 G! reposicao|count[5]~19 $end
$var wire 1 H! reposicao|count[6]~20_combout $end
$var wire 1 I! reposicao|Add2~13 $end
$var wire 1 J! reposicao|Add2~15_combout $end
$var wire 1 K! reposicao|Add2~17_combout $end
$var wire 1 L! comb_11|WideAnd0~0_combout $end
$var wire 1 M! reposicao|Add2~0_combout $end
$var wire 1 N! reposicao|Add2~20_combout $end
$var wire 1 O! reposicao|count[6]~21 $end
$var wire 1 P! reposicao|count[7]~22_combout $end
$var wire 1 Q! reposicao|Add2~16 $end
$var wire 1 R! reposicao|Add2~21_combout $end
$var wire 1 S! reposicao|Add2~23_combout $end
$var wire 1 T! WideOr0~0_combout $end
$var wire 1 U! WideOr0~combout $end
$var wire 1 V! comb_13|Selector1~0_combout $end
$var wire 1 W! comb_13|state.V1~feeder_combout $end
$var wire 1 X! comb_13|state.V1~q $end
$var wire 1 Y! comb~0_combout $end
$var wire 1 Z! comb~0clkctrl_outclk $end
$var wire 1 [! reposicao|count[2]~12_combout $end
$var wire 1 \! reposicao|Add2~4_combout $end
$var wire 1 ]! reposicao|Add2~19_combout $end
$var wire 1 ^! comb_11|WideAnd0~1_combout $end
$var wire 1 _! comb_14|Selector6~0_combout $end
$var wire 1 `! comb_14|Selector6~1_combout $end
$var wire 1 a! comb_14|state.E0~q $end
$var wire 1 b! comb_14|Selector4~0_combout $end
$var wire 1 c! comb_14|state.DISP~q $end
$var wire 1 d! comb_13|Selector2~0_combout $end
$var wire 1 e! comb_13|state.AL~q $end
$var wire 1 f! comb_4|WideOr0~combout $end
$var wire 1 g! reposicao|count [7] $end
$var wire 1 h! reposicao|count [6] $end
$var wire 1 i! reposicao|count [5] $end
$var wire 1 j! reposicao|count [4] $end
$var wire 1 k! reposicao|count [3] $end
$var wire 1 l! reposicao|count [2] $end
$var wire 1 m! reposicao|count [1] $end
$var wire 1 n! reposicao|count [0] $end
$var wire 1 o! comb_5|out [7] $end
$var wire 1 p! comb_5|out [6] $end
$var wire 1 q! comb_5|out [5] $end
$var wire 1 r! comb_5|out [4] $end
$var wire 1 s! comb_5|out [3] $end
$var wire 1 t! comb_5|out [2] $end
$var wire 1 u! comb_5|out [1] $end
$var wire 1 v! comb_5|out [0] $end
$upscope $end
$upscope $end
$enddefinitions $end
#0
$dumpvars
0!
1"
1#
b0 $
0%
0&
0'
0(
0)
0*
0+
03
02
01
00
0/
0.
0-
0,
04
15
0=
0<
0;
0:
09
08
07
06
0>
0?
0G
0F
0E
0D
0C
0B
0A
0@
0H
1I
xJ
1K
1L
1M
0N
zO
zP
zQ
0R
0S
0T
0U
0V
1W
0X
0Y
0Z
0[
0\
0]
0^
0_
0`
0a
0b
0c
0d
0e
0f
0g
0h
0i
0j
0k
0l
0m
0n
0o
0p
0q
0r
0s
0t
0u
0v
0w
0x
0y
0z
0{
1|
1}
0~
0!!
0"!
0#!
0$!
0%!
0&!
0'!
0(!
0)!
0*!
1+!
1,!
1-!
0.!
0/!
00!
01!
02!
03!
14!
05!
16!
07!
08!
19!
0:!
1;!
0<!
1=!
0>!
1?!
1@!
0A!
0B!
0C!
0D!
1E!
0F!
1G!
0H!
1I!
1J!
0K!
1L!
1M!
0N!
0O!
0P!
0Q!
1R!
0S!
0T!
0U!
0V!
0W!
0X!
0Y!
0Z!
0[!
1\!
0]!
1^!
0_!
1`!
0a!
1b!
0c!
1d!
0e!
0f!
0n!
0m!
0l!
0k!
0j!
0i!
0h!
0g!
0v!
0u!
0t!
0s!
zr!
zq!
zp!
zo!
$end
#10000
1!
1s
1u
1a!
1c!
1e!
1V
1R
1_!
1)
1(
0b!
1Y!
1*!
1Z!
1r
1h
0+!
14
1*
0`!
0,!
0-!
1n!
1X
1T!
13!
0M!
1,!
1=
1]!
1U!
1S!
1K!
1F!
1A!
1<!
15!
09!
04!
1-!
1V!
1:!
0\!
05!
0d!
0?!
0;!
0]!
1W!
1D!
0@!
0<!
0I!
0E!
0A!
1Q!
0J!
0F!
0R!
0K!
0S!
#20000
0!
0s
0u
0Y!
0Z!
0h
04
#30000
1!
1s
1u
1Y!
1Z!
1h
14
0a!
0c!
1X!
0e!
0V
1T
1U
0R
0_!
0V!
0)
1+
1?
0(
1b!
0*!
0r
1+!
0*
1`!
0W!
11!
0,!
12!
0-!
#40000
0!
0s
0u
0Y!
0Z!
0h
04
#50000
1!
1s
1u
1Y!
1Z!
1h
14
1a!
0n!
1c!
0X!
0T
0U
1R
0X
1_!
0T!
03!
1M!
01!
1,!
1V!
0=
1)
0+
0?
0b!
1*!
1r
0U!
19!
14!
0+!
1*
0`!
02!
1-!
1W!
0V!
0:!
1\!
0,!
1d!
1?!
1;!
0W!
0-!
0D!
1@!
1I!
1E!
0Q!
1J!
1R!
#60000
0!
0s
0u
0Y!
0Z!
0h
04
#70000
1!
1s
1u
1Y!
1Z!
1h
14
0a!
0c!
1e!
1V
0R
0_!
0)
1(
1b!
0Y!
0*!
0Z!
0r
0h
1+!
04
0*
1`!
1,!
1-!
#75000
b10 $
b11 $
1&!
1'!
1u!
1v!
1i
1j
1F
1G
#80000
0!
0s
0u
#90000
1!
1s
1u
1a!
1c!
1R
1_!
1)
0b!
1Y!
1*!
1Z!
1r
1h
10!
14
1*
0`!
12!
1n!
1X
1T!
13!
0M!
11!
0,!
1=
1]!
1U!
1S!
1K!
1F!
1A!
1<!
15!
09!
04!
06!
02!
0-!
1V!
1:!
0\!
05!
0d!
1[!
0?!
0;!
0]!
1W!
1D!
0@!
0<!
0I!
0E!
0A!
1Q!
0J!
0F!
0R!
0K!
0S!
#100000
0!
0s
0u
0Y!
0Z!
0h
04
#110000
1!
1s
1u
1Y!
1Z!
1h
14
0a!
1l!
0n!
0c!
1X!
0e!
0V
1T
1U
0R
0X
1Z
0_!
1\!
17!
03!
1M!
01!
1,!
0V!
1;
0=
0)
1+
1?
0(
1b!
0[!
0*!
0r
1]!
19!
14!
1N!
16!
00!
0*
1`!
18!
12!
1-!
0W!
0\!
15!
07!
1[!
02!
0]!
08!
#120000
0!
0s
0u
0Y!
0Z!
0h
04
#130000
1!
1s
1u
1Y!
1Z!
1h
14
1a!
0l!
1n!
1m!
1c!
0X!
0T
0U
1R
1Y
1X
0Z
1_!
0:!
1\!
13!
0M!
11!
0,!
09!
04!
1V!
0;
1=
1<
1)
0+
0?
0b!
0[!
12!
1*!
1r
1?!
1;!
1]!
14!
0N!
06!
1:!
0\!
05!
10!
1*
0`!
02!
0-!
1W!
0D!
1@!
1<!
15!
0?!
0;!
0]!
1[!
12!
1I!
1E!
1A!
1D!
0@!
0<!
0Q!
1J!
1F!
0I!
0E!
0A!
1R!
1K!
1Q!
0J!
0F!
1S!
0R!
0K!
0S!
#140000
0!
0s
0u
0Y!
0Z!
0h
04
#150000
b1 $
b0 $
1!
0&!
0'!
1s
1u
00!
0+!
0u!
0v!
1Y!
1Z!
1h
0i
0j
01!
1,!
0F
0G
14
02!
16!
12!
1-!
0[!
0a!
1l!
0n!
0c!
1X!
1T
1U
0R
0X
1Z
0_!
1\!
03!
1M!
0,!
0V!
1;
0=
0)
1+
1?
1b!
0^!
1[!
0*!
0r
0W
1]!
04!
1N!
1+!
05
0*
0-!
0W!
0b!
05!
1,!
1-!
#160000
0!
0s
0u
0Y!
0Z!
0h
04
#170000
1!
1s
1u
1Y!
1Z!
1h
14
1n!
0m!
0X!
0T
0U
0Y
1X
13!
0M!
11!
0,!
19!
14!
1V!
1=
0<
0+
0?
1^!
02!
0Y!
0Z!
0h
1W
09!
04!
0N!
0\!
15!
15
04
12!
0-!
1W!
1b!
1`!
1\!
05!
0]!
1]!
#180000
0!
0s
0u
#190000
1!
1s
1u
1a!
1c!
1X!
1T
1U
1R
1_!
0V!
1)
1+
1?
0b!
1Y!
1Z!
1h
14
0`!
0W!
0n!
0X
03!
1M!
01!
1,!
0=
19!
14!
1N!
02!
1-!
0\!
15!
0]!
#200000
0!
0s
0u
0Y!
0Z!
0h
04
#210000
1!
1s
1u
1Y!
1Z!
1h
14
0a!
0l!
1n!
1m!
0c!
0X!
0T
0U
0R
1Y
1X
0Z
0_!
0:!
1\!
13!
0M!
11!
0,!
09!
04!
1V!
0;
1=
1<
0)
0+
0?
1b!
0[!
12!
0Y!
0Z!
0h
1?!
1;!
1]!
14!
0N!
06!
1:!
0\!
05!
04
1`!
02!
0-!
1W!
0D!
1@!
1<!
15!
0?!
0;!
0]!
1[!
1I!
1E!
1A!
1D!
0@!
0<!
0Q!
1J!
1F!
0I!
0E!
0A!
1R!
1K!
1Q!
0J!
0F!
1S!
0R!
0K!
0S!
#220000
0!
0s
0u
#225000
b10 $
b11 $
1&!
1'!
1u!
1v!
1i
1j
1F
1G
#230000
1!
1s
1u
1a!
1c!
1X!
1T
1U
1R
1_!
0V!
1)
1+
1?
0b!
1Y!
1Z!
1h
14
0`!
0W!
0n!
0X
03!
1M!
01!
1,!
0=
04!
1N!
16!
12!
1-!
05!
0[!
#240000
0!
0s
0u
0Y!
0Z!
0h
04
#250000
1!
1s
1u
1Y!
1Z!
1h
14
0a!
1n!
0m!
0c!
0X!
0T
0U
0R
0Y
1X
0_!
13!
0M!
11!
0,!
19!
14!
1V!
1=
0<
0)
0+
0?
1b!
02!
0Y!
0Z!
0h
09!
04!
0N!
0:!
1\!
15!
04
1`!
12!
0-!
1W!
1:!
0\!
05!
1?!
1;!
1]!
0?!
0;!
0]!
0D!
1@!
1<!
1D!
0@!
0<!
1I!
1E!
1A!
0I!
0E!
0A!
0Q!
1J!
1F!
1Q!
0J!
0F!
1R!
1K!
0R!
0K!
1S!
0S!
#260000
0!
0s
0u
#270000
1!
1s
1u
1a!
1c!
1X!
1T
1U
1R
1_!
0V!
1)
1+
1?
0b!
1Y!
1Z!
1h
14
0`!
0W!
0n!
0X
0T!
03!
1M!
01!
1,!
0=
0U!
19!
14!
02!
1-!
0:!
1\!
1d!
1?!
1;!
0D!
1@!
1I!
1E!
0Q!
1J!
1R!
#280000
0!
0s
0u
0Y!
0Z!
0h
04
#290000
1!
1s
1u
1Y!
1Z!
1h
14
0a!
0c!
0X!
1e!
1V
0T
0U
0R
0_!
0)
0+
0?
1(
1b!
0Y!
0Z!
0h
04
1`!
#300000
b1 $
b0 $
0!
0&!
0'!
0s
0u
0u!
0v!
0i
0j
0F
0G
#310000
1!
1s
1u
1a!
1c!
1R
1_!
1)
0b!
1Y!
1*!
1Z!
1r
1h
0+!
14
1*
0`!
0,!
0-!
1n!
1X
1T!
13!
0M!
1,!
1=
1]!
1U!
1S!
1K!
1F!
1A!
1<!
15!
09!
04!
1-!
1V!
1:!
0\!
05!
0d!
0?!
0;!
0]!
1W!
1D!
0@!
0<!
0I!
0E!
0A!
1Q!
0J!
0F!
0R!
0K!
0S!
#320000
0!
0s
0u
0Y!
0Z!
0h
04
#330000
1!
1s
1u
1Y!
1Z!
1h
14
0a!
0c!
1X!
0e!
0V
1T
1U
0R
0_!
0V!
0)
1+
1?
0(
1b!
0*!
0r
1+!
0*
1`!
0W!
11!
0,!
12!
0-!
#340000
0!
0s
0u
0Y!
0Z!
0h
04
#350000
1!
1s
1u
1Y!
1Z!
1h
14
1a!
0n!
1c!
0X!
0T
0U
1R
0X
1_!
0T!
03!
1M!
01!
1,!
1V!
0=
1)
0+
0?
0b!
1*!
1r
0U!
19!
14!
0+!
1*
0`!
02!
1-!
1W!
0V!
0:!
1\!
0,!
1d!
1?!
1;!
0W!
0-!
0D!
1@!
1I!
1E!
0Q!
1J!
1R!
#360000
0!
0s
0u
0Y!
0Z!
0h
04
#370000
1!
1s
1u
1Y!
1Z!
1h
14
0a!
0c!
1e!
1V
0R
0_!
0)
1(
1b!
0Y!
0*!
0Z!
0r
0h
1+!
04
0*
1`!
1,!
1-!
#375000
b10 $
b11 $
1&!
1'!
1u!
1v!
1i
1j
1F
1G
#380000
0!
0s
0u
#390000
1!
1s
1u
1a!
1c!
1R
1_!
1)
0b!
1Y!
1*!
1Z!
1r
1h
10!
14
1*
0`!
12!
1n!
1X
1T!
13!
0M!
11!
0,!
1=
1]!
1U!
1S!
1K!
1F!
1A!
1<!
15!
09!
04!
06!
02!
0-!
1V!
1:!
0\!
05!
0d!
1[!
0?!
0;!
0]!
1W!
1D!
0@!
0<!
0I!
0E!
0A!
1Q!
0J!
0F!
0R!
0K!
0S!
#400000
0!
0s
0u
0Y!
0Z!
0h
04
#410000
1!
1s
1u
1Y!
1Z!
1h
14
0a!
1l!
0n!
0c!
1X!
0e!
0V
1T
1U
0R
0X
1Z
0_!
1\!
17!
03!
1M!
01!
1,!
0V!
1;
0=
0)
1+
1?
0(
1b!
0[!
0*!
0r
1]!
19!
14!
1N!
16!
00!
0*
1`!
18!
12!
1-!
0W!
0\!
15!
07!
1[!
02!
0]!
08!
#420000
0!
0s
0u
0Y!
0Z!
0h
04
#430000
1!
1s
1u
1Y!
1Z!
1h
14
1a!
0l!
1n!
1m!
1c!
0X!
0T
0U
1R
1Y
1X
0Z
1_!
0:!
1\!
13!
0M!
11!
0,!
09!
04!
1V!
0;
1=
1<
1)
0+
0?
0b!
0[!
12!
1*!
1r
1?!
1;!
1]!
14!
0N!
06!
1:!
0\!
05!
10!
1*
0`!
02!
0-!
1W!
0D!
1@!
1<!
15!
0?!
0;!
0]!
1[!
12!
1I!
1E!
1A!
1D!
0@!
0<!
0Q!
1J!
1F!
0I!
0E!
0A!
1R!
1K!
1Q!
0J!
0F!
1S!
0R!
0K!
0S!
#440000
0!
0s
0u
0Y!
0Z!
0h
04
#450000
b1 $
b0 $
1!
0&!
0'!
1s
1u
00!
0+!
0u!
0v!
1Y!
1Z!
1h
0i
0j
01!
1,!
0F
0G
14
02!
16!
12!
1-!
0[!
0a!
1l!
0n!
0c!
1X!
1T
1U
0R
0X
1Z
0_!
1\!
03!
1M!
0,!
0V!
1;
0=
0)
1+
1?
1b!
0^!
1[!
0*!
0r
0W
1]!
04!
1N!
1+!
05
0*
0-!
0W!
0b!
05!
1,!
1-!
#460000
0!
0s
0u
0Y!
0Z!
0h
04
#470000
1!
1s
1u
1Y!
1Z!
1h
14
1n!
0m!
0X!
0T
0U
0Y
1X
13!
0M!
11!
0,!
19!
14!
1V!
1=
0<
0+
0?
1^!
02!
0Y!
0Z!
0h
1W
09!
04!
0N!
0\!
15!
15
04
12!
0-!
1W!
1b!
1`!
1\!
05!
0]!
1]!
#480000
0!
0s
0u
#490000
1!
1s
1u
1a!
1c!
1X!
1T
1U
1R
1_!
0V!
1)
1+
1?
0b!
1Y!
1Z!
1h
14
0`!
0W!
0n!
0X
03!
1M!
01!
1,!
0=
19!
14!
1N!
02!
1-!
0\!
15!
0]!
#500000
0!
0s
0u
0Y!
0Z!
0h
04
#510000
1!
1s
1u
1Y!
1Z!
1h
14
0a!
0l!
1n!
1m!
0c!
0X!
0T
0U
0R
1Y
1X
0Z
0_!
0:!
1\!
13!
0M!
11!
0,!
09!
04!
1V!
0;
1=
1<
0)
0+
0?
1b!
0[!
12!
0Y!
0Z!
0h
1?!
1;!
1]!
14!
0N!
06!
1:!
0\!
05!
04
1`!
02!
0-!
1W!
0D!
1@!
1<!
15!
0?!
0;!
0]!
1[!
1I!
1E!
1A!
1D!
0@!
0<!
0Q!
1J!
1F!
0I!
0E!
0A!
1R!
1K!
1Q!
0J!
0F!
1S!
0R!
0K!
0S!
#520000
0!
0s
0u
#525000
b10 $
b11 $
1&!
1'!
1u!
1v!
1i
1j
1F
1G
#530000
1!
1s
1u
1a!
1c!
1X!
1T
1U
1R
1_!
0V!
1)
1+
1?
0b!
1Y!
1Z!
1h
14
0`!
0W!
0n!
0X
03!
1M!
01!
1,!
0=
04!
1N!
16!
12!
1-!
05!
0[!
#540000
0!
0s
0u
0Y!
0Z!
0h
04
#550000
1!
1s
1u
1Y!
1Z!
1h
14
0a!
1n!
0m!
0c!
0X!
0T
0U
0R
0Y
1X
0_!
13!
0M!
11!
0,!
19!
14!
1V!
1=
0<
0)
0+
0?
1b!
02!
0Y!
0Z!
0h
09!
04!
0N!
0:!
1\!
15!
04
1`!
12!
0-!
1W!
1:!
0\!
05!
1?!
1;!
1]!
0?!
0;!
0]!
0D!
1@!
1<!
1D!
0@!
0<!
1I!
1E!
1A!
0I!
0E!
0A!
0Q!
1J!
1F!
1Q!
0J!
0F!
1R!
1K!
0R!
0K!
1S!
0S!
#560000
0!
0s
0u
#570000
1!
1s
1u
1a!
1c!
1X!
1T
1U
1R
1_!
0V!
1)
1+
1?
0b!
1Y!
1Z!
1h
14
0`!
0W!
0n!
0X
0T!
03!
1M!
01!
1,!
0=
0U!
19!
14!
02!
1-!
0:!
1\!
1d!
1?!
1;!
0D!
1@!
1I!
1E!
0Q!
1J!
1R!
#580000
0!
0s
0u
0Y!
0Z!
0h
04
#590000
1!
1s
1u
1Y!
1Z!
1h
14
0a!
0c!
0X!
1e!
1V
0T
0U
0R
0_!
0)
0+
0?
1(
1b!
0Y!
0Z!
0h
04
1`!
#600000
b1 $
b0 $
0!
0&!
0'!
0s
0u
0u!
0v!
0i
0j
0F
0G
#610000
1!
1s
1u
1a!
1c!
1R
1_!
1)
0b!
1Y!
1*!
1Z!
1r
1h
0+!
14
1*
0`!
0,!
0-!
1n!
1X
1T!
13!
0M!
1,!
1=
1]!
1U!
1S!
1K!
1F!
1A!
1<!
15!
09!
04!
1-!
1V!
1:!
0\!
05!
0d!
0?!
0;!
0]!
1W!
1D!
0@!
0<!
0I!
0E!
0A!
1Q!
0J!
0F!
0R!
0K!
0S!
#620000
0!
0s
0u
0Y!
0Z!
0h
04
#630000
1!
1s
1u
1Y!
1Z!
1h
14
0a!
0c!
1X!
0e!
0V
1T
1U
0R
0_!
0V!
0)
1+
1?
0(
1b!
0*!
0r
1+!
0*
1`!
0W!
11!
0,!
12!
0-!
#640000
0!
0s
0u
0Y!
0Z!
0h
04
#650000
1!
1s
1u
1Y!
1Z!
1h
14
1a!
0n!
1c!
0X!
0T
0U
1R
0X
1_!
0T!
03!
1M!
01!
1,!
1V!
0=
1)
0+
0?
0b!
1*!
1r
0U!
19!
14!
0+!
1*
0`!
02!
1-!
1W!
0V!
0:!
1\!
0,!
1d!
1?!
1;!
0W!
0-!
0D!
1@!
1I!
1E!
0Q!
1J!
1R!
#660000
0!
0s
0u
0Y!
0Z!
0h
04
#670000
1!
1s
1u
1Y!
1Z!
1h
14
0a!
0c!
1e!
1V
0R
0_!
0)
1(
1b!
0Y!
0*!
0Z!
0r
0h
1+!
04
0*
1`!
1,!
1-!
#675000
b10 $
b11 $
1&!
1'!
1u!
1v!
1i
1j
1F
1G
#680000
0!
0s
0u
#690000
1!
1s
1u
1a!
1c!
1R
1_!
1)
0b!
1Y!
1*!
1Z!
1r
1h
10!
14
1*
0`!
12!
1n!
1X
1T!
13!
0M!
11!
0,!
1=
1]!
1U!
1S!
1K!
1F!
1A!
1<!
15!
09!
04!
06!
02!
0-!
1V!
1:!
0\!
05!
0d!
1[!
0?!
0;!
0]!
1W!
1D!
0@!
0<!
0I!
0E!
0A!
1Q!
0J!
0F!
0R!
0K!
0S!
#700000
0!
0s
0u
0Y!
0Z!
0h
04
#710000
1!
1s
1u
1Y!
1Z!
1h
14
0a!
1l!
0n!
0c!
1X!
0e!
0V
1T
1U
0R
0X
1Z
0_!
1\!
17!
03!
1M!
01!
1,!
0V!
1;
0=
0)
1+
1?
0(
1b!
0[!
0*!
0r
1]!
19!
14!
1N!
16!
00!
0*
1`!
18!
12!
1-!
0W!
0\!
15!
07!
1[!
02!
0]!
08!
#720000
0!
0s
0u
0Y!
0Z!
0h
04
#730000
1!
1s
1u
1Y!
1Z!
1h
14
1a!
0l!
1n!
1m!
1c!
0X!
0T
0U
1R
1Y
1X
0Z
1_!
0:!
1\!
13!
0M!
11!
0,!
09!
04!
1V!
0;
1=
1<
1)
0+
0?
0b!
0[!
12!
1*!
1r
1?!
1;!
1]!
14!
0N!
06!
1:!
0\!
05!
10!
1*
0`!
02!
0-!
1W!
0D!
1@!
1<!
15!
0?!
0;!
0]!
1[!
12!
1I!
1E!
1A!
1D!
0@!
0<!
0Q!
1J!
1F!
0I!
0E!
0A!
1R!
1K!
1Q!
0J!
0F!
1S!
0R!
0K!
0S!
#740000
0!
0s
0u
0Y!
0Z!
0h
04
#750000
b1 $
b0 $
1!
0&!
0'!
1s
1u
00!
0+!
0u!
0v!
1Y!
1Z!
1h
0i
0j
01!
1,!
0F
0G
14
02!
16!
12!
1-!
0[!
0a!
1l!
0n!
0c!
1X!
1T
1U
0R
0X
1Z
0_!
1\!
03!
1M!
0,!
0V!
1;
0=
0)
1+
1?
1b!
0^!
1[!
0*!
0r
0W
1]!
04!
1N!
1+!
05
0*
0-!
0W!
0b!
05!
1,!
1-!
#760000
0!
0s
0u
0Y!
0Z!
0h
04
#770000
1!
1s
1u
1Y!
1Z!
1h
14
1n!
0m!
0X!
0T
0U
0Y
1X
13!
0M!
11!
0,!
19!
14!
1V!
1=
0<
0+
0?
1^!
02!
0Y!
0Z!
0h
1W
09!
04!
0N!
0\!
15!
15
04
12!
0-!
1W!
1b!
1`!
1\!
05!
0]!
1]!
#780000
0!
0s
0u
#790000
1!
1s
1u
1a!
1c!
1X!
1T
1U
1R
1_!
0V!
1)
1+
1?
0b!
1Y!
1Z!
1h
14
0`!
0W!
0n!
0X
03!
1M!
01!
1,!
0=
19!
14!
1N!
02!
1-!
0\!
15!
0]!
#800000
0!
0s
0u
0Y!
0Z!
0h
04
#810000
1!
1s
1u
1Y!
1Z!
1h
14
0a!
0l!
1n!
1m!
0c!
0X!
0T
0U
0R
1Y
1X
0Z
0_!
0:!
1\!
13!
0M!
11!
0,!
09!
04!
1V!
0;
1=
1<
0)
0+
0?
1b!
0[!
12!
0Y!
0Z!
0h
1?!
1;!
1]!
14!
0N!
06!
1:!
0\!
05!
04
1`!
02!
0-!
1W!
0D!
1@!
1<!
15!
0?!
0;!
0]!
1[!
1I!
1E!
1A!
1D!
0@!
0<!
0Q!
1J!
1F!
0I!
0E!
0A!
1R!
1K!
1Q!
0J!
0F!
1S!
0R!
0K!
0S!
#820000
0!
0s
0u
#825000
b10 $
b11 $
1&!
1'!
1u!
1v!
1i
1j
1F
1G
#830000
1!
1s
1u
1a!
1c!
1X!
1T
1U
1R
1_!
0V!
1)
1+
1?
0b!
1Y!
1Z!
1h
14
0`!
0W!
0n!
0X
03!
1M!
01!
1,!
0=
04!
1N!
16!
12!
1-!
05!
0[!
#840000
0!
0s
0u
0Y!
0Z!
0h
04
#850000
1!
1s
1u
1Y!
1Z!
1h
14
0a!
1n!
0m!
0c!
0X!
0T
0U
0R
0Y
1X
0_!
13!
0M!
11!
0,!
19!
14!
1V!
1=
0<
0)
0+
0?
1b!
02!
0Y!
0Z!
0h
09!
04!
0N!
0:!
1\!
15!
04
1`!
12!
0-!
1W!
1:!
0\!
05!
1?!
1;!
1]!
0?!
0;!
0]!
0D!
1@!
1<!
1D!
0@!
0<!
1I!
1E!
1A!
0I!
0E!
0A!
0Q!
1J!
1F!
1Q!
0J!
0F!
1R!
1K!
0R!
0K!
1S!
0S!
#860000
0!
0s
0u
#870000
1!
1s
1u
1a!
1c!
1X!
1T
1U
1R
1_!
0V!
1)
1+
1?
0b!
1Y!
1Z!
1h
14
0`!
0W!
0n!
0X
0T!
03!
1M!
01!
1,!
0=
0U!
19!
14!
02!
1-!
0:!
1\!
1d!
1?!
1;!
0D!
1@!
1I!
1E!
0Q!
1J!
1R!
#880000
0!
0s
0u
0Y!
0Z!
0h
04
