PBL CD - PROBLEMA 3/simulation/qsim/pbl3.msim.vcd
$comment
	File created using the following command:
		vcd file pbl3.msim.vcd -direction
$end
$date
	Thu Nov 27 14:43:35 2025
$end
$version
	ModelSim Version 2020.1
$end
$timescale
	1ps
$end

$scope module MEF_dispenser_vlg_vec_tst $end
$var reg 1 ! clk $end
$var reg 1 " reset $end
$var reg 1 # rolha5 $end
$var reg 1 $ switch_add_rolha $end
$var wire 1 % add_rolha $end
$var wire 1 & disp $end

$scope module i1 $end
$var wire 1 ' gnd $end
$var wire 1 ( vcc $end
$var wire 1 ) unknown $end
$var tri1 1 * devclrn $end
$var tri1 1 + devpor $end
$var tri1 1 , devoe $end
$var wire 1 - ~QUARTUS_CREATED_GND~I_combout $end
$var wire 1 . ~QUARTUS_CREATED_UNVM~~busy $end
$var wire 1 / ~QUARTUS_CREATED_ADC1~~eoc $end
$var wire 1 0 ~QUARTUS_CREATED_ADC2~~eoc $end
$var wire 1 1 disp~output_o $end
$var wire 1 2 add_rolha~output_o $end
$var wire 1 3 clk~input_o $end
$var wire 1 4 clk~inputclkctrl_outclk $end
$var wire 1 5 rolha5~input_o $end
$var wire 1 6 switch_add_rolha~input_o $end
$var wire 1 7 Selector2~0_combout $end
$var wire 1 8 reset~input_o $end
$var wire 1 9 reset~inputclkctrl_outclk $end
$var wire 1 : state.ADD1~q $end
$var wire 1 ; Selector0~0_combout $end
$var wire 1 < state.ADD2~q $end
$var wire 1 = Selector6~0_combout $end
$var wire 1 > Selector6~1_combout $end
$var wire 1 ? state.E0~q $end
$var wire 1 @ state.DISP~0_combout $end
$var wire 1 A state.DISP~q $end
$upscope $end
$upscope $end
$enddefinitions $end
#0
$dumpvars
0!
0"
0#
0$
0%
0&
0'
1(
x)
1*
1+
1,
0-
z.
z/
z0
01
02
03
04
05
06
07
08
09
0:
0;
0<
1=
0>
0?
0@
0A
$end
#10000
1!
13
14
#20000
0!
03
04
#30000
1!
13
14
#40000
0!
03
04
#50000
1#
1$
1!
13
16
15
14
0=
1>
17
#60000
0!
03
04
#70000
1!
13
14
1?
1:
12
1=
1%
07
1;
#80000
0!
03
04
#90000
1!
13
14
1<
0:
02
0%
17
0;
#100000
0!
03
04
#110000
1!
13
14
0<
1:
12
1%
07
1;
#120000
0!
03
04
#130000
1!
13
14
1<
0:
02
0%
17
0;
#140000
0!
03
04
#150000
1!
13
14
0<
1:
12
1%
07
1;
#160000
0!
03
04
#170000
1!
13
14
1<
0:
02
0%
17
0;
#180000
0!
03
04
#190000
1!
13
14
0<
1:
12
1%
07
1;
#200000
0!
03
04
#210000
1!
13
14
1<
0:
02
0%
17
0;
#220000
0!
03
04
#230000
1!
13
14
0<
1:
12
1%
07
1;
#240000
0!
03
04
#250000
0#
1!
13
05
14
1<
0:
02
0%
17
0;
#260000
0!
03
04
#270000
1!
13
14
0<
1:
12
1%
07
1;
#280000
0!
03
04
#290000
1!
13
14
1<
0:
02
0%
17
0;
#300000
0!
03
04
#310000
1!
13
14
0<
1:
12
1%
07
1;
#320000
0!
03
04
#330000
1!
13
14
1<
0:
02
0%
17
0;
#340000
0!
03
04
#350000
1!
13
14
0<
1:
12
1%
07
1;
#360000
0!
03
04
#370000
1!
13
14
1<
0:
02
0%
17
0;
#380000
0!
03
04
#390000
1!
13
14
0<
1:
12
1%
07
1;
#400000
0$
0!
03
06
04
0>
0;
#410000
1!
13
14
0?
0:
02
0%
#420000
0!
03
04
#430000
1!
13
14
#440000
0!
03
04
#450000
1!
13
14
#460000
0!
03
04
#470000
1!
13
14
#480000
0!
03
04
#490000
1!
13
14
#500000
0!
03
04
#510000
1!
13
14
#520000
0!
03
04
#530000
1!
13
14
#540000
0!
03
04
#550000
1!
13
14
#560000
0!
03
04
#570000
1!
13
14
#580000
0!
03
04
#590000
1!
13
14
#600000
1$
0!
03
16
04
1>
17
#610000
1!
13
14
1?
1:
12
1%
07
1;
#620000
0!
03
04
#630000
1!
13
14
1<
0:
02
0%
17
0;
#640000
0!
03
04
#650000
1!
13
14
0<
1:
12
1%
07
1;
#660000
0!
03
04
#670000
1!
13
14
1<
0:
02
0%
17
0;
#680000
0!
03
04
#690000
1!
13
14
0<
1:
12
1%
07
1;
#700000
0!
03
04
#710000
1!
13
14
1<
0:
02
0%
17
0;
#720000
0!
03
04
#730000
1!
13
14
0<
1:
12
1%
07
1;
#740000
0!
03
04
#750000
1!
13
14
1<
0:
02
0%
17
0;
#760000
0!
03
04
#770000
1!
13
14
0<
1:
12
1%
07
1;
#780000
0!
03
04
#790000
1!
13
14
1<
0:
02
0%
17
0;
#800000
0$
0!
03
06
04
0>
07
#810000
1!
13
14
0?
0<
#820000
0!
03
04
#830000
1!
13
14
#840000
0!
03
04
#850000
1!
13
14
#860000
0!
03
04
#870000
1!
13
14
#880000
0!
03
04
#890000
1!
13
14
#900000
0!
03
04
#910000
1!
13
14
#920000
0!
03
04
#930000
1!
13
14
#940000
0!
03
04
#950000
1!
13
14
#960000
0!
03
04
#970000
1!
13
14
#980000
0!
03
04
#990000
1!
13
14
