PBL CD - PROBLEMA 3/simulation/qsim/pbl3.msim.vcd
$comment
	File created using the following command:
		vcd file pbl3.msim.vcd -direction
$end
$date
	Thu Nov 27 21:46:28 2025
$end
$version
	ModelSim Version 2020.1
$end
$timescale
	1ps
$end

$scope module MEF_dispenser_vlg_vec_tst $end
$var reg 1 ! clk $end
$var reg 1 " reset $end
$var reg 1 # rolha5 $end
$var reg 1 $ switch_add_rolha $end
$var wire 1 % add_rolha $end
$var wire 1 & disp $end

$scope module i1 $end
$var wire 1 ' gnd $end
$var wire 1 ( vcc $end
$var wire 1 ) unknown $end
$var tri1 1 * devclrn $end
$var tri1 1 + devpor $end
$var tri1 1 , devoe $end
$var wire 1 - ~QUARTUS_CREATED_GND~I_combout $end
$var wire 1 . ~QUARTUS_CREATED_UNVM~~busy $end
$var wire 1 / ~QUARTUS_CREATED_ADC1~~eoc $end
$var wire 1 0 ~QUARTUS_CREATED_ADC2~~eoc $end
$var wire 1 1 disp~output_o $end
$var wire 1 2 add_rolha~output_o $end
$var wire 1 3 clk~input_o $end
$var wire 1 4 clk~inputclkctrl_outclk $end
$var wire 1 5 rolha5~input_o $end
$var wire 1 6 switch_add_rolha~input_o $end
$var wire 1 7 Selector2~0_combout $end
$var wire 1 8 reset~input_o $end
$var wire 1 9 reset~inputclkctrl_outclk $end
$var wire 1 : state.ADD1~q $end
$var wire 1 ; Selector3~0_combout $end
$var wire 1 < state.ADD2~q $end
$var wire 1 = Selector0~0_combout $end
$var wire 1 > Selector0~1_combout $end
$var wire 1 ? state.E0~q $end
$var wire 1 @ Selector1~0_combout $end
$var wire 1 A state.DISP~q $end
$upscope $end
$upscope $end
$enddefinitions $end
#0
$dumpvars
0!
0"
0#
0$
0%
0&
0'
1(
x)
1*
1+
1,
0-
z.
z/
z0
01
02
03
04
05
06
07
08
09
0:
0;
0<
1=
0>
0?
0@
0A
$end
#5000
1!
13
14
#10000
1#
0!
03
15
04
0=
1@
1>
#15000
1!
13
14
1?
1A
11
1&
#20000
0!
03
04
#25000
1!
13
14
#30000
0!
03
04
#35000
1!
13
14
#40000
0!
03
04
#45000
1!
13
14
#50000
0!
03
04
#55000
1!
13
14
#60000
0!
03
04
#65000
1!
13
14
#70000
0!
03
04
#75000
1!
13
14
#80000
0!
03
04
#85000
1!
13
14
#90000
0!
03
04
#95000
1!
13
14
#100000
0!
03
04
#105000
1!
13
14
#110000
0!
03
04
#115000
1!
13
14
#120000
0!
03
04
#125000
1!
13
14
#130000
0!
03
04
#135000
1!
13
14
#140000
0!
03
04
#145000
1!
13
14
#150000
0!
03
04
#155000
1!
13
14
#160000
0!
03
04
#165000
1!
13
14
#170000
0!
03
04
#175000
1!
13
14
#180000
0!
03
04
#185000
1!
13
14
#190000
0!
03
04
#195000
1!
13
14
#200000
0!
03
04
#205000
1!
13
14
#210000
0!
03
04
#215000
1!
13
14
#220000
0!
03
04
#225000
1!
13
14
#230000
0!
03
04
#235000
1!
13
14
#240000
0!
03
04
#245000
1!
13
14
#250000
0!
03
04
#255000
1!
13
14
#260000
0!
03
04
#265000
1!
13
14
#270000
0!
03
04
#275000
1!
13
14
#280000
0!
03
04
#285000
1!
13
14
#290000
0!
03
04
#295000
1!
13
14
#300000
0!
03
04
#305000
1!
13
14
#310000
0!
03
04
#315000
1!
13
14
#320000
0!
03
04
#325000
1!
13
14
#330000
0!
03
04
#335000
1!
13
14
#340000
0!
03
04
#345000
1!
13
14
#350000
1$
0!
03
16
04
0@
17
#355000
1!
13
14
0A
1:
12
01
1=
0&
1%
07
1;
#360000
0!
03
04
#365000
1!
13
14
1<
0:
02
0=
0%
17
0;
#370000
0!
03
04
#375000
1!
13
14
0<
1:
12
1=
1%
07
1;
#380000
0!
03
04
#385000
1!
13
14
1<
0:
02
0=
0%
17
0;
#390000
0!
03
04
#395000
1!
13
14
0<
1:
12
1=
1%
07
1;
#400000
0!
03
04
#405000
1!
13
14
1<
0:
02
0=
0%
17
0;
#410000
0!
03
04
#415000
1!
13
14
0<
1:
12
1=
1%
07
1;
#420000
0!
03
04
#425000
1!
13
14
1<
0:
02
0=
0%
17
0;
#430000
0!
03
04
#435000
1!
13
14
0<
1:
12
1=
1%
07
1;
#440000
0!
03
04
#445000
1!
13
14
1<
0:
02
0=
0%
17
0;
#450000
0!
03
04
#455000
1!
13
14
0<
1:
12
1=
1%
07
1;
#460000
0!
03
04
#465000
1!
13
14
1<
0:
02
0=
0%
17
0;
#470000
0!
03
04
#475000
1!
13
14
0<
1:
12
1=
1%
07
1;
#480000
0!
03
04
#485000
1!
13
14
1<
0:
02
0=
0%
17
0;
#490000
0!
03
04
#495000
1!
13
14
0<
1:
12
1=
1%
07
1;
#500000
0!
03
04
#505000
1!
13
14
1<
0:
02
0=
0%
17
0;
#510000
0!
03
04
#515000
1!
13
14
0<
1:
12
1=
1%
07
1;
#520000
0!
03
04
#525000
1!
13
14
1<
0:
02
0=
0%
17
0;
#530000
0!
03
04
#535000
1!
13
14
0<
1:
12
1=
1%
07
1;
#540000
0!
03
04
#545000
1!
13
14
1<
0:
02
0=
0%
17
0;
#550000
0!
03
04
#555000
1!
13
14
0<
1:
12
1=
1%
07
1;
#560000
0!
03
04
#565000
1!
13
14
1<
0:
02
0=
0%
17
0;
#570000
0!
03
04
#575000
1!
13
14
0<
1:
12
1=
1%
07
1;
#580000
0!
03
04
#585000
1!
13
14
1<
0:
02
0=
0%
17
0;
#590000
0!
03
04
#595000
1!
13
14
0<
1:
12
1=
1%
07
1;
#600000
0!
03
04
#605000
1!
13
14
1<
0:
02
0=
0%
17
0;
#610000
0!
03
04
#615000
1!
13
14
0<
1:
12
1=
1%
07
1;
#620000
0!
03
04
#625000
1!
13
14
1<
0:
02
0=
0%
17
0;
#630000
0!
03
04
#635000
1!
13
14
0<
1:
12
1=
1%
07
1;
#640000
0!
03
04
#645000
1!
13
14
1<
0:
02
0=
0%
17
0;
#650000
0!
03
04
#655000
1!
13
14
0<
1:
12
1=
1%
07
1;
#660000
0!
03
04
#665000
1!
13
14
1<
0:
02
0=
0%
17
0;
#670000
0!
03
04
#675000
1!
13
14
0<
1:
12
1=
1%
07
1;
#680000
0!
03
04
#685000
1!
13
14
1<
0:
02
0=
0%
17
0;
#690000
0!
03
04
#695000
1!
13
14
0<
1:
12
1=
1%
07
1;
#700000
0!
03
04
#705000
1!
13
14
1<
0:
02
0=
0%
17
0;
#710000
0!
03
04
#715000
1!
13
14
0<
1:
12
1=
1%
07
1;
#720000
0!
03
04
#725000
1!
13
14
1<
0:
02
0=
0%
17
0;
#730000
0!
03
04
#735000
1!
13
14
0<
1:
12
1=
1%
07
1;
#740000
0!
03
04
#745000
1!
13
14
1<
0:
02
0=
0%
17
0;
#750000
0!
03
04
#755000
1!
13
14
0<
1:
12
1=
1%
07
1;
#760000
0!
03
04
#765000
1!
13
14
1<
0:
02
0=
0%
17
0;
#770000
0!
03
04
#775000
1!
13
14
0<
1:
12
1=
1%
07
1;
#780000
0!
03
04
#785000
1!
13
14
1<
0:
02
0=
0%
17
0;
#790000
0!
03
04
#795000
1!
13
14
0<
1:
12
1=
1%
07
1;
#800000
0!
03
04
#805000
1!
13
14
1<
0:
02
0=
0%
17
0;
#810000
0!
03
04
#815000
1!
13
14
0<
1:
12
1=
1%
07
1;
#820000
0!
03
04
#825000
1!
13
14
1<
0:
02
0=
0%
17
0;
#830000
0!
03
04
#835000
1!
13
14
0<
1:
12
1=
1%
07
1;
#840000
0!
03
04
#845000
1!
13
14
1<
0:
02
0=
0%
17
0;
#850000
0!
03
04
#855000
1!
13
14
0<
1:
12
1=
1%
07
1;
#860000
0!
03
04
#865000
1!
13
14
1<
0:
02
0=
0%
17
0;
#870000
0!
03
04
#875000
1!
13
14
0<
1:
12
1=
1%
07
1;
#880000
0!
03
04
#885000
1!
13
14
1<
0:
02
0=
0%
17
0;
#890000
0!
03
04
#895000
1!
13
14
0<
1:
12
1=
1%
07
1;
#900000
0!
03
04
#905000
1!
13
14
1<
0:
02
0=
0%
17
0;
#910000
0!
03
04
#915000
1!
13
14
0<
1:
12
1=
1%
07
1;
#920000
0!
03
04
#925000
1!
13
14
1<
0:
02
0=
0%
17
0;
#930000
0!
03
04
#935000
1!
13
14
0<
1:
12
1=
1%
07
1;
#940000
0!
03
04
#945000
1!
13
14
1<
0:
02
0=
0%
17
0;
#950000
0!
03
04
#955000
1!
13
14
0<
1:
12
1=
1%
07
1;
#960000
0!
03
04
#965000
1!
13
14
1<
0:
02
0=
0%
17
0;
#970000
0!
03
04
#975000
1!
13
14
0<
1:
12
1=
1%
07
1;
#980000
0!
03
04
#985000
1!
13
14
1<
0:
02
0=
0%
17
0;
#990000
0!
03
04
#995000
1!
13
14
0<
1:
12
1=
1%
07
1;
