PBL CD - PROBLEMA 3/simulation/qsim/pbl3.msim.vcd
$comment
	File created using the following command:
		vcd file pbl3.msim.vcd -direction
$end
$date
	Wed Nov 19 19:36:55 2025
$end
$version
	ModelSim Version 2020.1
$end
$timescale
	1ps
$end

$scope module MEF_vedacao_vlg_vec_tst $end
$var reg 1 ! clk $end
$var reg 1 " garrafa $end
$var reg 1 # pos $end
$var reg 1 $ reset $end
$var reg 1 % rolha $end
$var wire 1 & alarme $end
$var wire 1 ' done $end
$var wire 1 ( ve $end

$scope module i1 $end
$var wire 1 ) gnd $end
$var wire 1 * vcc $end
$var wire 1 + unknown $end
$var tri1 1 , devclrn $end
$var tri1 1 - devpor $end
$var tri1 1 . devoe $end
$var wire 1 / ~QUARTUS_CREATED_GND~I_combout $end
$var wire 1 0 ~QUARTUS_CREATED_UNVM~~busy $end
$var wire 1 1 ~QUARTUS_CREATED_ADC1~~eoc $end
$var wire 1 2 ~QUARTUS_CREATED_ADC2~~eoc $end
$var wire 1 3 ve~output_o $end
$var wire 1 4 done~output_o $end
$var wire 1 5 alarme~output_o $end
$var wire 1 6 clk~input_o $end
$var wire 1 7 garrafa~input_o $end
$var wire 1 8 pos~input_o $end
$var wire 1 9 rolha~input_o $end
$var wire 1 : Mux1~0_combout $end
$var wire 1 ; Mux0~0_combout $end
$var wire 1 < reset~input_o $end
$var wire 1 = reset~inputclkctrl_outclk $end
$var wire 1 > Mux2~0_combout $end
$var wire 1 ? Mux2~0clkctrl_outclk $end
$var wire 1 @ comb_47|ve~combout $end
$var wire 1 A comb_47|alarme~combout $end
$var wire 1 B state [1] $end
$var wire 1 C state [0] $end
$var wire 1 D nextstate [1] $end
$var wire 1 E nextstate [0] $end
$upscope $end
$upscope $end
$enddefinitions $end
#0
$dumpvars
0!
0"
0#
0$
0%
0&
0'
0(
0)
1*
x+
1,
1-
1.
0/
z0
z1
z2
03
04
05
06
07
08
09
0:
1;
0<
0=
1>
1?
0@
0A
0C
0B
0E
1D
$end
#10000
1!
16
1B
1A
15
1&
#20000
0!
06
#25000
1"
17
#30000
1!
16
#40000
0!
06
#50000
1#
0"
1!
07
18
16
#60000
0!
06
#70000
1!
16
#75000
1%
1"
17
19
0;
1:
0D
1E
#80000
0!
06
#90000
1!
16
1C
0B
0:
0A
1@
13
14
05
0&
1'
1(
0E
#100000
0#
0"
0!
07
08
06
#110000
1!
16
0C
0@
03
04
0'
0(
#120000
0!
06
#125000
1"
17
#130000
1!
16
#140000
0!
06
#150000
0%
1#
0"
1!
07
18
09
16
1;
1D
#160000
0!
06
#170000
1!
16
1B
1A
15
1&
#175000
1"
17
#180000
0!
06
#190000
1!
16
#200000
0#
0"
0!
07
08
06
#210000
1!
16
#220000
0!
06
#225000
1%
1"
17
19
#230000
1!
16
#240000
0!
06
#250000
1#
0"
1!
07
18
16
0;
0D
#260000
0!
06
#270000
1!
16
0B
0A
05
0&
#275000
1"
17
1:
1E
#280000
0!
06
#290000
1!
16
1C
0:
1@
13
14
1'
1(
0E
#300000
0%
0#
0"
0!
07
08
09
06
1;
1D
#310000
1!
16
0C
1B
1A
0@
03
04
15
1&
0'
0(
#320000
0!
06
#325000
1"
17
#330000
1!
16
#340000
0!
06
#350000
1#
0"
1!
07
18
16
#360000
0!
06
#370000
1!
16
#375000
1%
1"
17
19
0;
1:
0D
1E
#380000
0!
06
#390000
1!
16
1C
0B
0:
0A
1@
13
14
05
0&
1'
1(
0E
#400000
0#
0"
0!
07
08
06
#410000
1!
16
0C
0@
03
04
0'
0(
#420000
0!
06
#425000
1"
17
#430000
1!
16
#440000
0!
06
#450000
0%
1#
0"
1!
07
18
09
16
1;
1D
#460000
0!
06
#470000
1!
16
1B
1A
15
1&
#475000
1"
17
#480000
0!
06
#490000
1!
16
#500000
0#
0"
0!
07
08
06
#510000
1!
16
#520000
0!
06
#525000
1%
1"
17
19
#530000
1!
16
#540000
0!
06
#550000
1#
0"
1!
07
18
16
0;
0D
#560000
0!
06
#570000
1!
16
0B
0A
05
0&
#575000
1"
17
1:
1E
#580000
0!
06
#590000
1!
16
1C
0:
1@
13
14
1'
1(
0E
#600000
0%
0#
0"
0!
07
08
09
06
1;
1D
#610000
1!
16
0C
1B
1A
0@
03
04
15
1&
0'
0(
#620000
0!
06
#625000
1"
17
#630000
1!
16
#640000
0!
06
#650000
1#
0"
1!
07
18
16
#660000
0!
06
#670000
1!
16
#675000
1%
1"
17
19
0;
1:
0D
1E
#680000
0!
06
#690000
1!
16
1C
0B
0:
0A
1@
13
14
05
0&
1'
1(
0E
#700000
0#
0"
0!
07
08
06
#710000
1!
16
0C
0@
03
04
0'
0(
#720000
0!
06
#725000
1"
17
#730000
1!
16
#740000
0!
06
#750000
0%
1#
0"
1!
07
18
09
16
1;
1D
#760000
0!
06
#770000
1!
16
1B
1A
15
1&
#775000
1"
17
#780000
0!
06
#790000
1!
16
#800000
0#
0"
0!
07
08
06
#810000
1!
16
#820000
0!
06
#825000
1%
1"
17
19
#830000
1!
16
#840000
0!
06
#850000
1#
0"
1!
07
18
16
0;
0D
#860000
0!
06
#870000
1!
16
0B
0A
05
0&
#875000
1"
17
1:
1E
#880000
0!
06
#890000
1!
16
1C
0:
1@
13
14
1'
1(
0E
#900000
0%
0#
0"
0!
07
08
09
06
1;
1D
#910000
1!
16
0C
1B
1A
0@
03
04
15
1&
0'
0(
#920000
0!
06
#925000
1"
17
#930000
1!
16
#940000
0!
06
#950000
1#
0"
1!
07
18
16
#960000
0!
06
#970000
1!
16
#975000
1%
1"
17
19
0;
1:
0D
1E
#980000
0!
06
#990000
1!
16
1C
0B
0:
0A
1@
13
14
05
0&
1'
1(
0E
