PBL CD - PROBLEMA 3/simulation/qsim/pbl3.msim.vcd
$comment
	File created using the following command:
		vcd file pbl3.msim.vcd -direction
$end
$date
	Mon Nov 24 21:44:11 2025
$end
$version
	ModelSim Version 2020.1
$end
$timescale
	1ps
$end

$scope module teste_vlg_vec_tst $end
$var reg 1 ! clk $end
$var reg 1 " resetar $end
$var reg 1 # start_count $end
$var wire 1 $ cont_done $end
$var wire 1 % tem_12 $end
$var wire 1 & wire_cont1 [7] $end
$var wire 1 ' wire_cont1 [6] $end
$var wire 1 ( wire_cont1 [5] $end
$var wire 1 ) wire_cont1 [4] $end
$var wire 1 * wire_cont1 [3] $end
$var wire 1 + wire_cont1 [2] $end
$var wire 1 , wire_cont1 [1] $end
$var wire 1 - wire_cont1 [0] $end
$var wire 1 . wire_cont12 [7] $end
$var wire 1 / wire_cont12 [6] $end
$var wire 1 0 wire_cont12 [5] $end
$var wire 1 1 wire_cont12 [4] $end
$var wire 1 2 wire_cont12 [3] $end
$var wire 1 3 wire_cont12 [2] $end
$var wire 1 4 wire_cont12 [1] $end
$var wire 1 5 wire_cont12 [0] $end

$scope module i1 $end
$var wire 1 6 gnd $end
$var wire 1 7 vcc $end
$var wire 1 8 unknown $end
$var tri1 1 9 devclrn $end
$var tri1 1 : devpor $end
$var tri1 1 ; devoe $end
$var wire 1 < cont_done~output_o $end
$var wire 1 = wire_cont1[0]~output_o $end
$var wire 1 > wire_cont1[1]~output_o $end
$var wire 1 ? wire_cont1[2]~output_o $end
$var wire 1 @ wire_cont1[3]~output_o $end
$var wire 1 A wire_cont1[4]~output_o $end
$var wire 1 B wire_cont1[5]~output_o $end
$var wire 1 C wire_cont1[6]~output_o $end
$var wire 1 D wire_cont1[7]~output_o $end
$var wire 1 E wire_cont12[0]~output_o $end
$var wire 1 F wire_cont12[1]~output_o $end
$var wire 1 G wire_cont12[2]~output_o $end
$var wire 1 H wire_cont12[3]~output_o $end
$var wire 1 I wire_cont12[4]~output_o $end
$var wire 1 J wire_cont12[5]~output_o $end
$var wire 1 K wire_cont12[6]~output_o $end
$var wire 1 L wire_cont12[7]~output_o $end
$var wire 1 M tem_12~output_o $end
$var wire 1 N clk~input_o $end
$var wire 1 O start_count~input_o $end
$var wire 1 P comb_4|Selector0~0_combout $end
$var wire 1 Q comb_5|count[0]~21_combout $end
$var wire 1 R comb_5|count[1]~7_combout $end
$var wire 1 S comb_5|count[1]~8 $end
$var wire 1 T comb_5|count[2]~9_combout $end
$var wire 1 U comb_5|count[2]~10 $end
$var wire 1 V comb_5|count[3]~11_combout $end
$var wire 1 W comb_3|WideAnd0~0_combout $end
$var wire 1 X comb_5|count[3]~12 $end
$var wire 1 Y comb_5|count[4]~13_combout $end
$var wire 1 Z comb_5|count[4]~14 $end
$var wire 1 [ comb_5|count[5]~15_combout $end
$var wire 1 \ comb_5|count[5]~16 $end
$var wire 1 ] comb_5|count[6]~17_combout $end
$var wire 1 ^ comb_5|count[6]~18 $end
$var wire 1 _ comb_5|count[7]~19_combout $end
$var wire 1 ` comb_3|WideAnd0~2_combout $end
$var wire 1 a comb_4|Selector1~0_combout $end
$var wire 1 b resetar~input_o $end
$var wire 1 c comb_4|state.CONT12~q $end
$var wire 1 d comb_3|WideAnd0~1_combout $end
$var wire 1 e comb_3|WideAnd0~combout $end
$var wire 1 f comb_4|Selector0~1_combout $end
$var wire 1 g comb_4|state.C1~q $end
$var wire 1 h comb_4|nextstate.CONT1~0_combout $end
$var wire 1 i comb_4|state.CONT1~q $end
$var wire 1 j comb_4|state.WAIT~q $end
$var wire 1 k comb_6|count[0]~21_combout $end
$var wire 1 l comb_6|count[1]~7_combout $end
$var wire 1 m reset_cont12~combout $end
$var wire 1 n comb_6|count[1]~8 $end
$var wire 1 o comb_6|count[2]~9_combout $end
$var wire 1 p comb_6|count[2]~10 $end
$var wire 1 q comb_6|count[3]~11_combout $end
$var wire 1 r comb_6|count[3]~12 $end
$var wire 1 s comb_6|count[4]~13_combout $end
$var wire 1 t comb_6|count[4]~14 $end
$var wire 1 u comb_6|count[5]~15_combout $end
$var wire 1 v comb_6|count[5]~16 $end
$var wire 1 w comb_6|count[6]~17_combout $end
$var wire 1 x comb_6|count[6]~18 $end
$var wire 1 y comb_6|count[7]~19_combout $end
$var wire 1 z comb_5|count [7] $end
$var wire 1 { comb_5|count [6] $end
$var wire 1 | comb_5|count [5] $end
$var wire 1 } comb_5|count [4] $end
$var wire 1 ~ comb_5|count [3] $end
$var wire 1 !! comb_5|count [2] $end
$var wire 1 "! comb_5|count [1] $end
$var wire 1 #! comb_5|count [0] $end
$var wire 1 $! comb_6|count [7] $end
$var wire 1 %! comb_6|count [6] $end
$var wire 1 &! comb_6|count [5] $end
$var wire 1 '! comb_6|count [4] $end
$var wire 1 (! comb_6|count [3] $end
$var wire 1 )! comb_6|count [2] $end
$var wire 1 *! comb_6|count [1] $end
$var wire 1 +! comb_6|count [0] $end
$upscope $end
$upscope $end
$enddefinitions $end
#0
$dumpvars
0!
0"
1#
0$
0%
0-
0,
0+
0*
0)
0(
0'
0&
05
04
03
02
01
00
0/
0.
06
17
x8
19
1:
1;
0<
0=
0>
0?
0@
0A
0B
0C
0D
0E
0F
0G
0H
0I
0J
0K
0L
0M
0N
1O
0P
1Q
0R
0S
0T
1U
0V
0W
0X
0Y
1Z
0[
0\
0]
1^
0_
1`
0a
0b
0c
1d
0e
1f
0g
1h
0i
0j
1k
0l
0m
0n
0o
1p
0q
0r
0s
1t
0u
0v
0w
1x
0y
0#!
0"!
0!!
0~
0}
0|
0{
0z
0+!
0*!
0)!
0(!
0'!
0&!
0%!
0$!
$end
#2500
1!
1N
1g
1i
0h
1#!
1=
1-
1R
0Q
#5000
0!
0N
#7500
1!
1N
1j
0i
1<
1$
0f
#10000
0!
0N
#12500
1!
1N
0g
0j
0<
0$
1h
1f
#15000
0!
0N
#17500
1!
1N
1g
1i
0h
1"!
0#!
0=
1>
1,
0-
1Q
#20000
0!
0N
#22500
1!
1N
1j
0i
1<
1$
0f
#25000
0!
0N
#27500
1!
1N
0g
0j
0<
0$
1h
1f
#30000
0!
0N
#32500
1!
1N
1g
1i
0h
1#!
1=
1S
1-
0R
0Q
1T
#35000
0!
0N
#37500
1!
1N
1j
0i
1<
1$
0f
#40000
0!
0N
#42500
1!
1N
0g
0j
0<
0$
1h
1f
#45000
0!
0N
#47500
1!
1N
1g
1i
0h
1!!
0"!
0#!
0=
0>
1?
0U
0S
1+
0,
0-
0T
1Q
1U
1V
1T
0V
#50000
0!
0N
#52500
1!
1N
1j
0i
1<
1$
0f
#55000
0!
0N
#57500
1!
1N
0g
0j
0<
0$
1h
1f
#60000
0!
0N
#62500
1!
1N
1g
1i
0h
1#!
1=
1-
1R
0Q
#65000
0!
0N
#67500
1!
1N
1j
0i
1<
1$
0f
#70000
0!
0N
#72500
1!
1N
0g
0j
0<
0$
1h
1f
#75000
0!
0N
#77500
1!
1N
1g
1i
0h
1"!
0#!
0=
1>
1,
0-
1Q
#80000
0!
0N
#82500
1!
1N
1j
0i
1<
1$
0f
#85000
0!
0N
#87500
1!
1N
0g
0j
0<
0$
1h
1f
#90000
0!
0N
#92500
1!
1N
1g
1i
0h
1#!
1=
1S
1-
0R
0Q
0U
0T
1V
#95000
0!
0N
#97500
1!
1N
1j
0i
1<
1$
0f
#100000
0!
0N
#102500
1!
1N
0g
0j
0<
0$
1h
1f
#105000
0!
0N
#107500
1!
1N
1g
1i
0h
1~
0!!
0"!
0#!
0=
0>
0?
1@
1X
1U
0S
1*
0+
0,
0-
0V
1T
1Q
0X
1Y
1V
0T
0Y
#110000
0!
0N
#112500
1!
1N
1j
0i
1<
1$
0f
#115000
0!
0N
#117500
1!
1N
0g
0j
0<
0$
1h
1f
#120000
0!
0N
#122500
1!
1N
1g
1i
0h
1#!
1=
1-
1R
0Q
#125000
0!
0N
#127500
1!
1N
1j
0i
1<
1$
0f
#130000
0!
0N
#132500
1!
1N
0g
0j
0<
0$
1h
1f
#135000
0!
0N
#137500
1!
1N
1g
1i
0h
1"!
0#!
0=
1>
1,
0-
1Q
#140000
0!
0N
#142500
1!
1N
1j
0i
1<
1$
0f
#145000
0!
0N
#147500
1!
1N
0g
0j
0<
0$
1h
1f
#150000
0!
0N
#152500
1!
1N
1g
1i
0h
1#!
1=
1S
1-
0R
0Q
1T
#155000
0!
0N
#157500
1!
1N
1j
0i
1<
1$
0f
#160000
0!
0N
#162500
1!
1N
0g
0j
0<
0$
1h
1f
#165000
0!
0N
#167500
1!
1N
1g
1i
0h
1!!
0"!
0#!
0=
0>
1?
1W
0U
0S
1+
0,
0-
0T
1Q
1X
1U
1e
0V
1T
1M
0X
1%
1Y
1V
0Y
#170000
0!
0N
#172500
1!
1N
1j
0i
1<
1$
1a
#175000
0!
0N
#177500
1!
1N
0j
1c
0<
0$
1+!
0!!
0~
0@
0?
1E
0W
15
0+
0*
1l
0k
0T
0V
0e
0a
0M
0%
0f
#180000
0!
0N
#182500
1!
1N
0g
0c
1h
1f
#185000
0!
0N
#187500
1!
1N
1g
1i
0h
1#!
1=
1-
1R
0Q
#190000
0!
0N
#192500
1!
1N
1j
0i
1<
1$
0f
#195000
0!
0N
#197500
1!
1N
0g
0j
0<
0$
1h
1f
#200000
0!
0N
#202500
1!
1N
1g
1i
0h
1"!
0#!
0=
1>
1,
0-
1Q
#205000
0!
0N
#207500
1!
1N
1j
0i
1<
1$
0f
#210000
0!
0N
#212500
1!
1N
0g
0j
0<
0$
1h
1f
#215000
0!
0N
#217500
1!
1N
1g
1i
0h
1#!
1=
1S
1-
0R
0Q
1T
#220000
0!
0N
#222500
1!
1N
1j
0i
1<
1$
0f
#225000
0!
0N
#227500
1!
1N
0g
0j
0<
0$
1h
1f
#230000
0!
0N
#232500
1!
1N
1g
1i
0h
1!!
0"!
0#!
0=
0>
1?
0U
0S
1+
0,
0-
0T
1Q
1U
1V
1T
0V
#235000
0!
0N
#237500
1!
1N
1j
0i
1<
1$
0f
#240000
0!
0N
#242500
1!
1N
0g
0j
0<
0$
1h
1f
#245000
0!
0N
#247500
1!
1N
1g
1i
0h
1#!
1=
1-
1R
0Q
#250000
0!
0N
#252500
1!
1N
1j
0i
1<
1$
0f
#255000
0!
0N
#257500
1!
1N
0g
0j
0<
0$
1h
1f
#260000
0!
0N
#262500
1!
1N
1g
1i
0h
1"!
0#!
0=
1>
1,
0-
1Q
#265000
0!
0N
#267500
1!
1N
1j
0i
1<
1$
0f
#270000
0!
0N
#272500
1!
1N
0g
0j
0<
0$
1h
1f
#275000
0!
0N
#277500
1!
1N
1g
1i
0h
1#!
1=
1S
1-
0R
0Q
0U
0T
1V
#280000
0!
0N
#282500
1!
1N
1j
0i
1<
1$
0f
#285000
0!
0N
#287500
1!
1N
0g
0j
0<
0$
1h
1f
#290000
0!
0N
#292500
1!
1N
1g
1i
0h
1~
0!!
0"!
0#!
0=
0>
0?
1@
1X
1U
0S
1*
0+
0,
0-
0V
1T
1Q
0X
1Y
1V
0T
0Y
#295000
0!
0N
#297500
1!
1N
1j
0i
1<
1$
0f
#300000
0!
0N
#302500
1!
1N
0g
0j
0<
0$
1h
1f
#305000
0!
0N
#307500
1!
1N
1g
1i
0h
1#!
1=
1-
1R
0Q
#310000
0!
0N
#312500
1!
1N
1j
0i
1<
1$
0f
#315000
0!
0N
#317500
1!
1N
0g
0j
0<
0$
1h
1f
#320000
0!
0N
#322500
1!
1N
1g
1i
0h
1"!
0#!
0=
1>
1,
0-
1Q
#325000
0!
0N
#327500
1!
1N
1j
0i
1<
1$
0f
#330000
0!
0N
#332500
1!
1N
0g
0j
0<
0$
1h
1f
#335000
0!
0N
#337500
1!
1N
1g
1i
0h
1#!
1=
1S
1-
0R
0Q
1T
#340000
0!
0N
#342500
1!
1N
1j
0i
1<
1$
0f
#345000
0!
0N
#347500
1!
1N
0g
0j
0<
0$
1h
1f
#350000
0!
0N
#352500
1!
1N
1g
1i
0h
1!!
0"!
0#!
0=
0>
1?
1W
0U
0S
1+
0,
0-
0T
1Q
1X
1U
1e
0V
1T
1M
0X
1%
1Y
1V
0Y
#355000
0!
0N
#357500
1!
1N
1j
0i
1<
1$
1a
#360000
0!
0N
#362500
1!
1N
0j
1c
0<
0$
0+!
1*!
0!!
0~
0@
0?
1F
0E
1m
0W
05
14
0+
0*
1k
0T
0V
0e
0a
0M
0%
0f
0*!
0F
0m
04
0l
#365000
0!
0N
#367500
1!
1N
0g
0c
1h
1f
#370000
0!
0N
#372500
1!
1N
1g
1i
0h
1#!
1=
1-
1R
0Q
#375000
0!
0N
#377500
1!
1N
1j
0i
1<
1$
0f
#380000
0!
0N
#382500
1!
1N
0g
0j
0<
0$
1h
1f
#385000
0!
0N
#387500
1!
1N
1g
1i
0h
1"!
0#!
0=
1>
1,
0-
1Q
#390000
0!
0N
#392500
1!
1N
1j
0i
1<
1$
0f
#395000
0!
0N
#397500
1!
1N
0g
0j
0<
0$
1h
1f
#400000
0!
0N
#402500
1!
1N
1g
1i
0h
1#!
1=
1S
1-
0R
0Q
1T
#405000
0!
0N
#407500
1!
1N
1j
0i
1<
1$
0f
#410000
0!
0N
#412500
1!
1N
0g
0j
0<
0$
1h
1f
#415000
0!
0N
#417500
1!
1N
1g
1i
0h
1!!
0"!
0#!
0=
0>
1?
0U
0S
1+
0,
0-
0T
1Q
1U
1V
1T
0V
#420000
0!
0N
#422500
1!
1N
1j
0i
1<
1$
0f
#425000
0!
0N
#427500
1!
1N
0g
0j
0<
0$
1h
1f
#430000
0!
0N
#432500
1!
1N
1g
1i
0h
1#!
1=
1-
1R
0Q
#435000
0!
0N
#437500
1!
1N
1j
0i
1<
1$
0f
#440000
0!
0N
#442500
1!
1N
0g
0j
0<
0$
1h
1f
#445000
0!
0N
#447500
1!
1N
1g
1i
0h
1"!
0#!
0=
1>
1,
0-
1Q
#450000
0!
0N
#452500
1!
1N
1j
0i
1<
1$
0f
#455000
0!
0N
#457500
1!
1N
0g
0j
0<
0$
1h
1f
#460000
0!
0N
#462500
1!
1N
1g
1i
0h
1#!
1=
1S
1-
0R
0Q
0U
0T
1V
#465000
0!
0N
#467500
1!
1N
1j
0i
1<
1$
0f
#470000
0!
0N
#472500
1!
1N
0g
0j
0<
0$
1h
1f
#475000
0!
0N
#477500
1!
1N
1g
1i
0h
1~
0!!
0"!
0#!
0=
0>
0?
1@
1X
1U
0S
1*
0+
0,
0-
0V
1T
1Q
0X
1Y
1V
0T
0Y
#480000
0!
0N
#482500
1!
1N
1j
0i
1<
1$
0f
#485000
0!
0N
#487500
1!
1N
0g
0j
0<
0$
1h
1f
#490000
0!
0N
#492500
1!
1N
1g
1i
0h
1#!
1=
1-
1R
0Q
#495000
0!
0N
#497500
1!
1N
1j
0i
1<
1$
0f
#500000
0!
0N
#502500
1!
1N
0g
0j
0<
0$
1h
1f
#505000
0!
0N
#507500
1!
1N
1g
1i
0h
1"!
0#!
0=
1>
1,
0-
1Q
#510000
0!
0N
#512500
1!
1N
1j
0i
1<
1$
0f
#515000
0!
0N
#517500
1!
1N
0g
0j
0<
0$
1h
1f
#520000
0!
0N
#522500
1!
1N
1g
1i
0h
1#!
1=
1S
1-
0R
0Q
1T
#525000
0!
0N
#527500
1!
1N
1j
0i
1<
1$
0f
#530000
0!
0N
#532500
1!
1N
0g
0j
0<
0$
1h
1f
#535000
0!
0N
#537500
1!
1N
1g
1i
0h
1!!
0"!
0#!
0=
0>
1?
1W
0U
0S
1+
0,
0-
0T
1Q
1X
1U
1e
0V
1T
1M
0X
1%
1Y
1V
0Y
#540000
0!
0N
#542500
1!
1N
1j
0i
1<
1$
1a
#545000
0!
0N
#547500
1!
1N
0j
1c
0<
0$
1+!
0!!
0~
0@
0?
1E
0W
15
0+
0*
1l
0k
0T
0V
0e
0a
0M
0%
0f
#550000
0!
0N
#552500
1!
1N
0g
0c
1h
1f
#555000
0!
0N
#557500
1!
1N
1g
1i
0h
1#!
1=
1-
1R
0Q
#560000
0!
0N
#562500
1!
1N
1j
0i
1<
1$
0f
#565000
0!
0N
#567500
1!
1N
0g
0j
0<
0$
1h
1f
#570000
0!
0N
#572500
1!
1N
1g
1i
0h
1"!
0#!
0=
1>
1,
0-
1Q
#575000
0!
0N
#577500
1!
1N
1j
0i
1<
1$
0f
#580000
0!
0N
#582500
1!
1N
0g
0j
0<
0$
1h
1f
#585000
0!
0N
#587500
1!
1N
1g
1i
0h
1#!
1=
1S
1-
0R
0Q
1T
#590000
0!
0N
#592500
1!
1N
1j
0i
1<
1$
0f
#595000
0!
0N
#597500
1!
1N
0g
0j
0<
0$
1h
1f
#600000
0!
0N
#602500
1!
1N
1g
1i
0h
1!!
0"!
0#!
0=
0>
1?
0U
0S
1+
0,
0-
0T
1Q
1U
1V
1T
0V
#605000
0!
0N
#607500
1!
1N
1j
0i
1<
1$
0f
#610000
0!
0N
#612500
1!
1N
0g
0j
0<
0$
1h
1f
#615000
0!
0N
#617500
1!
1N
1g
1i
0h
1#!
1=
1-
1R
0Q
#620000
0!
0N
#622500
1!
1N
1j
0i
1<
1$
0f
#625000
0!
0N
#627500
1!
1N
0g
0j
0<
0$
1h
1f
#630000
0!
0N
#632500
1!
1N
1g
1i
0h
1"!
0#!
0=
1>
1,
0-
1Q
#635000
0!
0N
#637500
1!
1N
1j
0i
1<
1$
0f
#640000
0!
0N
#642500
1!
1N
0g
0j
0<
0$
1h
1f
#645000
0!
0N
#647500
1!
1N
1g
1i
0h
1#!
1=
1S
1-
0R
0Q
0U
0T
1V
#650000
0!
0N
#652500
1!
1N
1j
0i
1<
1$
0f
#655000
0!
0N
#657500
1!
1N
0g
0j
0<
0$
1h
1f
#660000
0!
0N
#662500
1!
1N
1g
1i
0h
1~
0!!
0"!
0#!
0=
0>
0?
1@
1X
1U
0S
1*
0+
0,
0-
0V
1T
1Q
0X
1Y
1V
0T
0Y
#665000
0!
0N
#667500
1!
1N
1j
0i
1<
1$
0f
#670000
0!
0N
#672500
1!
1N
0g
0j
0<
0$
1h
1f
#675000
0!
0N
#677500
1!
1N
1g
1i
0h
1#!
1=
1-
1R
0Q
#680000
0!
0N
#682500
1!
1N
1j
0i
1<
1$
0f
#685000
0!
0N
#687500
1!
1N
0g
0j
0<
0$
1h
1f
#690000
0!
0N
#692500
1!
1N
1g
1i
0h
1"!
0#!
0=
1>
1,
0-
1Q
#695000
0!
0N
#697500
1!
1N
1j
0i
1<
1$
0f
#700000
0!
0N
#702500
1!
1N
0g
0j
0<
0$
1h
1f
#705000
0!
0N
#707500
1!
1N
1g
1i
0h
1#!
1=
1S
1-
0R
0Q
1T
#710000
0!
0N
#712500
1!
1N
1j
0i
1<
1$
0f
#715000
0!
0N
#717500
1!
1N
0g
0j
0<
0$
1h
1f
#720000
0!
0N
#722500
1!
1N
1g
1i
0h
1!!
0"!
0#!
0=
0>
1?
1W
0U
0S
1+
0,
0-
0T
1Q
1X
1U
1e
0V
1T
1M
0X
1%
1Y
1V
0Y
#725000
0!
0N
#727500
1!
1N
1j
0i
1<
1$
1a
#730000
0!
0N
#732500
1!
1N
0j
1c
0<
0$
0+!
1*!
0!!
0~
0@
0?
1F
0E
1m
0W
05
14
0+
0*
1k
0T
0V
0e
0a
0M
0%
0f
0*!
0F
0m
04
0l
#735000
0!
0N
#737500
1!
1N
0g
0c
1h
1f
#740000
0!
0N
#742500
1!
1N
1g
1i
0h
1#!
1=
1-
1R
0Q
#745000
0!
0N
#747500
1!
1N
1j
0i
1<
1$
0f
#750000
0!
0N
#752500
1!
1N
0g
0j
0<
0$
1h
1f
#755000
0!
0N
#757500
1!
1N
1g
1i
0h
1"!
0#!
0=
1>
1,
0-
1Q
#760000
0!
0N
#762500
1!
1N
1j
0i
1<
1$
0f
#765000
0!
0N
#767500
1!
1N
0g
0j
0<
0$
1h
1f
#770000
0!
0N
#772500
1!
1N
1g
1i
0h
1#!
1=
1S
1-
0R
0Q
1T
#775000
0!
0N
#777500
1!
1N
1j
0i
1<
1$
0f
#780000
0!
0N
#782500
1!
1N
0g
0j
0<
0$
1h
1f
#785000
0!
0N
#787500
1!
1N
1g
1i
0h
1!!
0"!
0#!
0=
0>
1?
0U
0S
1+
0,
0-
0T
1Q
1U
1V
1T
0V
#790000
0!
0N
#792500
1!
1N
1j
0i
1<
1$
0f
#795000
0!
0N
#797500
1!
1N
0g
0j
0<
0$
1h
1f
#800000
0!
0N
#802500
1!
1N
1g
1i
0h
1#!
1=
1-
1R
0Q
#805000
0!
0N
#807500
1!
1N
1j
0i
1<
1$
0f
#810000
0!
0N
#812500
1!
1N
0g
0j
0<
0$
1h
1f
#815000
0!
0N
#817500
1!
1N
1g
1i
0h
1"!
0#!
0=
1>
1,
0-
1Q
#820000
0!
0N
#822500
1!
1N
1j
0i
1<
1$
0f
#825000
0!
0N
#827500
1!
1N
0g
0j
0<
0$
1h
1f
#830000
0!
0N
#832500
1!
1N
1g
1i
0h
1#!
1=
1S
1-
0R
0Q
0U
0T
1V
#835000
0!
0N
#837500
1!
1N
1j
0i
1<
1$
0f
#840000
0!
0N
#842500
1!
1N
0g
0j
0<
0$
1h
1f
#845000
0!
0N
#847500
1!
1N
1g
1i
0h
1~
0!!
0"!
0#!
0=
0>
0?
1@
1X
1U
0S
1*
0+
0,
0-
0V
1T
1Q
0X
1Y
1V
0T
0Y
#850000
0!
0N
#852500
1!
1N
1j
0i
1<
1$
0f
#855000
0!
0N
#857500
1!
1N
0g
0j
0<
0$
1h
1f
#860000
0!
0N
#862500
1!
1N
1g
1i
0h
1#!
1=
1-
1R
0Q
#865000
0!
0N
#867500
1!
1N
1j
0i
1<
1$
0f
#870000
0!
0N
#872500
1!
1N
0g
0j
0<
0$
1h
1f
#875000
0!
0N
#877500
1!
1N
1g
1i
0h
1"!
0#!
0=
1>
1,
0-
1Q
#880000
0!
0N
#882500
1!
1N
1j
0i
1<
1$
0f
#885000
0!
0N
#887500
1!
1N
0g
0j
0<
0$
1h
1f
#890000
0!
0N
#892500
1!
1N
1g
1i
0h
1#!
1=
1S
1-
0R
0Q
1T
#895000
0!
0N
#897500
1!
1N
1j
0i
1<
1$
0f
#900000
0!
0N
#902500
1!
1N
0g
0j
0<
0$
1h
1f
#905000
0!
0N
#907500
1!
1N
1g
1i
0h
1!!
0"!
0#!
0=
0>
1?
1W
0U
0S
1+
0,
0-
0T
1Q
1X
1U
1e
0V
1T
1M
0X
1%
1Y
1V
0Y
#910000
0!
0N
#912500
1!
1N
1j
0i
1<
1$
1a
#915000
0!
0N
#917500
1!
1N
0j
1c
0<
0$
1+!
0!!
0~
0@
0?
1E
0W
15
0+
0*
1l
0k
0T
0V
0e
0a
0M
0%
0f
#920000
0!
0N
#922500
1!
1N
0g
0c
1h
1f
#925000
0!
0N
#927500
1!
1N
1g
1i
0h
1#!
1=
1-
1R
0Q
#930000
0!
0N
#932500
1!
1N
1j
0i
1<
1$
0f
#935000
0!
0N
#937500
1!
1N
0g
0j
0<
0$
1h
1f
#940000
0!
0N
#942500
1!
1N
1g
1i
0h
1"!
0#!
0=
1>
1,
0-
1Q
#945000
0!
0N
#947500
1!
1N
1j
0i
1<
1$
0f
#950000
0!
0N
#952500
1!
1N
0g
0j
0<
0$
1h
1f
#955000
0!
0N
#957500
1!
1N
1g
1i
0h
1#!
1=
1S
1-
0R
0Q
1T
#960000
0!
0N
#962500
1!
1N
1j
0i
1<
1$
0f
#965000
0!
0N
#967500
1!
1N
0g
0j
0<
0$
1h
1f
#970000
0!
0N
#972500
1!
1N
1g
1i
0h
1!!
0"!
0#!
0=
0>
1?
0U
0S
1+
0,
0-
0T
1Q
1U
1V
1T
0V
#975000
0!
0N
#977500
1!
1N
1j
0i
1<
1$
0f
#980000
0!
0N
#982500
1!
1N
0g
0j
0<
0$
1h
1f
#985000
0!
0N
#987500
1!
1N
1g
1i
0h
1#!
1=
1-
1R
0Q
#990000
0!
0N
#992500
1!
1N
1j
0i
1<
1$
0f
#995000
0!
0N
#997500
1!
1N
0g
0j
0<
0$
1h
1f
#999000
0#
0!
0O
0N
1P
0h
0f
