PBL CD - PROBLEMA 3/simulation/qsim/pbl3.msim.vcd
$comment
	File created using the following command:
		vcd file pbl3.msim.vcd -direction
$end
$date
	Sun Nov 30 17:35:16 2025
$end
$version
	ModelSim Version 2020.1
$end
$timescale
	1ps
$end

$scope module MEF_main_vlg_vec_tst $end
$var reg 1 ! clk $end
$var reg 1 " cont_done $end
$var reg 1 # descarte $end
$var reg 1 $ garrafa $end
$var reg 1 % reset $end
$var reg 1 & sensor_cq $end
$var reg 1 ' sensor_de_nivel $end
$var reg 1 ( start $end
$var reg 1 ) ve_done $end
$var wire 1 * Desc_signal $end
$var wire 1 + EV $end
$var wire 1 , controle_qualidade $end
$var wire 1 - count $end
$var wire 1 . motor $end
$var wire 1 / pos_cq $end
$var wire 1 0 pos_ve $end
$var wire 1 1 resetar $end

$scope module i1 $end
$var wire 1 2 gnd $end
$var wire 1 3 vcc $end
$var wire 1 4 unknown $end
$var tri1 1 5 devclrn $end
$var tri1 1 6 devpor $end
$var tri1 1 7 devoe $end
$var wire 1 8 ~QUARTUS_CREATED_GND~I_combout $end
$var wire 1 9 ~QUARTUS_CREATED_UNVM~~busy $end
$var wire 1 : ~QUARTUS_CREATED_ADC1~~eoc $end
$var wire 1 ; ~QUARTUS_CREATED_ADC2~~eoc $end
$var wire 1 < motor~output_o $end
$var wire 1 = EV~output_o $end
$var wire 1 > pos_ve~output_o $end
$var wire 1 ? count~output_o $end
$var wire 1 @ resetar~output_o $end
$var wire 1 A Desc_signal~output_o $end
$var wire 1 B controle_qualidade~output_o $end
$var wire 1 C pos_cq~output_o $end
$var wire 1 D clk~input_o $end
$var wire 1 E clk~inputclkctrl_outclk $end
$var wire 1 F start~input_o $end
$var wire 1 G ve_done~input_o $end
$var wire 1 H cont_done~input_o $end
$var wire 1 I sensor_cq~input_o $end
$var wire 1 J descarte~input_o $end
$var wire 1 K Mux1~0_combout $end
$var wire 1 L garrafa~input_o $end
$var wire 1 M sensor_de_nivel~input_o $end
$var wire 1 N Mux0~0_combout $end
$var wire 1 O Mux0~1_combout $end
$var wire 1 P Mux0~2_combout $end
$var wire 1 Q Mux2~0_combout $end
$var wire 1 R Mux2~1_combout $end
$var wire 1 S reset~input_o $end
$var wire 1 T reset~inputclkctrl_outclk $end
$var wire 1 U Mux1~1_combout $end
$var wire 1 V Mux1~2_combout $end
$var wire 1 W Mux1~3_combout $end
$var wire 1 X Mux0~3_combout $end
$var wire 1 Y comb_50|WideAnd0~2_combout $end
$var wire 1 Z Mux0~4_combout $end
$var wire 1 [ comb_50|WideAnd0~0_combout $end
$var wire 1 \ comb_50|WideAnd0~1_combout $end
$var wire 1 ] comb_50|WideAnd0~3_combout $end
$var wire 1 ^ comb_50|WideAnd0~4_combout $end
$var wire 1 _ comb_50|WideAnd0~5_combout $end
$var wire 1 ` comb_50|WideAnd0~6_combout $end
$var wire 1 a state [2] $end
$var wire 1 b state [1] $end
$var wire 1 c state [0] $end
$upscope $end
$upscope $end
$enddefinitions $end
#0
$dumpvars
0!
1"
0#
1$
0%
0&
1'
1(
1)
0*
0+
0,
0-
0.
0/
00
11
02
13
x4
15
16
17
08
z9
z:
z;
0<
0=
0>
0?
1@
0A
0B
0C
0D
0E
1F
1G
1H
0I
0J
0K
1L
1M
1N
0O
1P
1Q
1R
0S
0T
0U
0V
0W
0X
0Y
0Z
0[
0\
0]
1^
0_
0`
0c
0b
0a
$end
#10000
1!
1D
1E
1c
1U
0P
1O
0N
0^
1[
1<
0@
1V
0Q
01
1.
1W
0R
#20000
0!
0D
0E
#30000
1!
1D
1E
1b
0c
0V
0U
1P
0O
1N
1\
0[
0<
1=
1V
1+
0.
0W
1R
1W
#40000
0!
0D
0E
#50000
1!
1D
1E
1c
1U
0P
1O
0N
0\
1Y
1>
0=
0V
0+
10
0R
1Z
0W
#60000
0!
0D
0E
#70000
1!
1D
1E
1a
0b
0c
1X
1V
1Q
0U
1P
0O
1N
1`
0Y
0>
1B
1C
0V
0Q
1/
1,
00
1R
0R
#80000
0!
0D
0E
#90000
1!
1D
1E
#100000
0!
0D
0E
#110000
1!
1D
1E
#120000
0!
0D
0E
#130000
1!
1D
1E
#140000
0!
0D
0E
#150000
1!
1D
1E
#160000
0!
0D
0E
#170000
1!
1D
1E
#180000
0!
0D
0E
#190000
1!
1D
1E
#200000
0!
0D
0E
#210000
1!
1D
1E
#220000
1&
0!
0D
1I
0E
1O
1Q
1R
#230000
1!
1D
1E
1c
0X
1U
0P
0N
0`
1]
1?
0B
0C
1V
0/
0,
1-
0Z
#240000
0&
0!
0D
0I
0E
#250000
1!
1D
1E
0a
0Q
0]
1[
1W
1<
0?
0-
1.
0R
#260000
0!
0D
0E
#270000
1!
1D
1E
1b
0c
0V
0U
1P
0O
1N
1\
0[
0<
1=
1V
1+
0.
0W
1R
1W
#280000
0!
0D
0E
#290000
1!
1D
1E
1c
1U
0P
1O
0N
0\
1Y
1>
0=
0V
0+
10
0R
1Z
0W
#300000
0!
0D
0E
#310000
1!
1D
1E
1a
0b
0c
1X
1V
1Q
0U
1P
0O
1N
1`
0Y
0>
1B
1C
0V
0Q
1/
1,
00
1R
0R
#320000
0!
0D
0E
#330000
1!
1D
1E
#340000
0!
0D
0E
#350000
1!
1D
1E
#360000
0!
0D
0E
#370000
1!
1D
1E
#380000
0!
0D
0E
#390000
1!
1D
1E
#400000
0!
0D
0E
#410000
1!
1D
1E
#420000
0!
0D
0E
#430000
1!
1D
1E
#440000
0!
0D
0E
#450000
1!
1D
1E
#460000
0!
0D
0E
#470000
1!
1D
1E
#480000
0!
0D
0E
#490000
1!
1D
1E
#500000
0!
0D
0E
#510000
1!
1D
1E
#520000
0!
0D
0E
#530000
1!
1D
1E
#540000
0!
0D
0E
#550000
1!
1D
1E
#560000
0!
0D
0E
#570000
1!
1D
1E
#580000
0!
0D
0E
#590000
1!
1D
1E
#600000
0!
0D
0E
#610000
1!
1D
1E
#620000
0!
0D
0E
#630000
1!
1D
1E
#640000
0!
0D
0E
#650000
1!
1D
1E
#660000
0!
0D
0E
#670000
1!
1D
1E
#680000
1#
0!
0D
1J
0E
1K
1W
#690000
1!
1D
1E
1b
0X
1V
1Q
0`
1_
1R
1A
0B
0C
0/
0,
1*
0Z
0W
#700000
0#
0!
0D
0J
0E
0K
#710000
1!
1D
1E
0a
0b
1c
0V
1U
0P
1O
0N
0_
1[
1W
1<
0A
1V
0Q
0*
1.
0W
1W
0R
#720000
0!
0D
0E
#730000
1!
1D
1E
1b
0c
0V
0U
1P
0O
1N
1\
0[
0<
1=
1V
1+
0.
0W
1R
1W
#740000
0!
0D
0E
#750000
1!
1D
1E
1c
1U
0P
1O
0N
0\
1Y
1>
0=
0V
0+
10
0R
1Z
0W
#760000
0!
0D
0E
#770000
1!
1D
1E
1a
0b
0c
1X
1V
1Q
0U
1P
0O
1N
1`
0Y
0>
1B
1C
0V
0Q
1/
1,
00
1R
0R
#780000
0!
0D
0E
#790000
1!
1D
1E
#800000
0!
0D
0E
#810000
1!
1D
1E
#820000
0!
0D
0E
#830000
1!
1D
1E
#840000
0!
0D
0E
#850000
1!
1D
1E
#860000
0!
0D
0E
#870000
1!
1D
1E
#880000
0!
0D
0E
#890000
1!
1D
1E
#900000
0!
0D
0E
#910000
1!
1D
1E
#920000
0!
0D
0E
#930000
1!
1D
1E
#940000
0!
0D
0E
#950000
1!
1D
1E
#960000
0!
0D
0E
#970000
1!
1D
1E
#980000
0!
0D
0E
#990000
1!
1D
1E
