PBL CD - PROBLEMA 3/simulation/qsim/pbl3.msim.vcd
$comment
	File created using the following command:
		vcd file pbl3.msim.vcd -direction
$end
$date
	Mon Nov 24 19:30:20 2025
$end
$version
	ModelSim Version 2020.1
$end
$timescale
	1ps
$end

$scope module MEF_contador_duzias_vlg_vec_tst $end
$var reg 1 ! clk $end
$var reg 1 " cont12 $end
$var reg 1 # cq $end
$var reg 1 $ reset $end
$var wire 1 % add_cont12 $end
$var wire 1 & cont1 $end

$scope module i1 $end
$var wire 1 ' gnd $end
$var wire 1 ( vcc $end
$var wire 1 ) unknown $end
$var tri1 1 * devclrn $end
$var tri1 1 + devpor $end
$var tri1 1 , devoe $end
$var wire 1 - ~QUARTUS_CREATED_GND~I_combout $end
$var wire 1 . ~QUARTUS_CREATED_UNVM~~busy $end
$var wire 1 / ~QUARTUS_CREATED_ADC1~~eoc $end
$var wire 1 0 ~QUARTUS_CREATED_ADC2~~eoc $end
$var wire 1 1 cont1~output_o $end
$var wire 1 2 add_cont12~output_o $end
$var wire 1 3 clk~input_o $end
$var wire 1 4 clk~inputclkctrl_outclk $end
$var wire 1 5 cont12~input_o $end
$var wire 1 6 cq~input_o $end
$var wire 1 7 nextstate.WAIT~0_combout $end
$var wire 1 8 reset~input_o $end
$var wire 1 9 reset~inputclkctrl_outclk $end
$var wire 1 : state.WAIT~q $end
$var wire 1 ; Selector2~0_combout $end
$var wire 1 < state.CONT12~q $end
$var wire 1 = Selector0~0_combout $end
$var wire 1 > Selector0~1_combout $end
$var wire 1 ? state.C1~q $end
$var wire 1 @ Selector1~0_combout $end
$var wire 1 A state.CONT1~q $end
$upscope $end
$upscope $end
$enddefinitions $end
#0
$dumpvars
0!
0"
1#
0$
0%
0&
0'
1(
x)
1*
1+
1,
0-
z.
z/
z0
01
02
03
04
05
16
07
08
09
0:
0;
0<
0=
1>
0?
1@
0A
$end
#25000
1!
13
14
1?
1A
11
1&
#50000
0!
03
04
#75000
1"
1!
13
15
14
0@
17
#100000
0!
03
04
#125000
1!
13
14
1:
0A
01
0&
1;
07
#150000
0"
0!
03
05
04
#175000
1!
13
14
0:
1<
12
1=
1%
0;
0>
#200000
0!
03
04
#225000
1"
1!
13
15
14
0=
1;
1>
0?
0<
02
0%
1@
0;
#250000
0!
03
04
#275000
1!
13
14
1?
1A
11
1&
0@
17
#300000
0"
0!
03
05
04
1@
07
#325000
1!
13
14
#350000
0!
03
04
#375000
1"
1!
13
15
14
0@
17
#400000
0!
03
04
#425000
1!
13
14
1:
0A
01
0&
1;
07
#450000
0"
0!
03
05
04
#475000
1!
13
14
0:
1<
12
1=
1%
0;
0>
#500000
0!
03
04
#525000
1"
1!
13
15
14
0=
1;
1>
0?
0<
02
0%
1@
0;
#550000
0!
03
04
#575000
1!
13
14
1?
1A
11
1&
0@
17
#600000
0"
0!
03
05
04
1@
07
#625000
1!
13
14
#650000
0!
03
04
#675000
1"
1!
13
15
14
0@
17
#700000
0!
03
04
#725000
1!
13
14
1:
0A
01
0&
1;
07
#750000
0"
0!
03
05
04
#775000
1!
13
14
0:
1<
12
1=
1%
0;
0>
#800000
0!
03
04
#825000
1"
1!
13
15
14
0=
1;
1>
0?
0<
02
0%
1@
0;
#850000
0!
03
04
#875000
1!
13
14
1?
1A
11
1&
0@
17
#900000
0"
0!
03
05
04
1@
07
#925000
1!
13
14
#950000
0!
03
04
#975000
1"
1!
13
15
14
0@
17
